info face="" size=12 bold=0 italic=0 charset="" unicode=1 stretchH=100 smooth=1 aa=2 padding=1,1,1,1 spacing=-2,-28
common lineHeight=83 base=69 scaleW=1024 scaleH=1024 pages=1 packed=0 alphaChnl=0 redChnl=0 greenChnl=0 blueChnl=0
page id=0 file="birdsort_eff60.png"
chars count=233
char id=32    x=0    y=0    width=0    height=0    xoffset=-1   yoffset=-1   xadvance=13   page=0    chnl=0
char id=33    x=586  y=405  width=24   height=50   xoffset=1    yoffset=26   xadvance=19   page=0    chnl=0
char id=34    x=131  y=559  width=37   height=28   xoffset=0    yoffset=27   xadvance=31   page=0    chnl=0
char id=35    x=248  y=510  width=42   height=47   xoffset=0    yoffset=29   xadvance=36   page=0    chnl=0
char id=36    x=90   y=220  width=39   height=62   xoffset=0    yoffset=21   xadvance=33   page=0    chnl=0
char id=37    x=362  y=405  width=60   height=50   xoffset=0    yoffset=26   xadvance=55   page=0    chnl=0
char id=38    x=311  y=405  width=49   height=51   xoffset=0    yoffset=25   xadvance=43   page=0    chnl=0
char id=39    x=108  y=559  width=21   height=28   xoffset=0    yoffset=27   xadvance=15   page=0    chnl=0
char id=40    x=447  y=285  width=26   height=57   xoffset=1    yoffset=25   xadvance=22   page=0    chnl=0
char id=41    x=475  y=285  width=27   height=57   xoffset=0    yoffset=25   xadvance=22   page=0    chnl=0
char id=42    x=38   y=559  width=32   height=31   xoffset=1    yoffset=26   xadvance=27   page=0    chnl=0
char id=43    x=952  y=510  width=35   height=35   xoffset=1    yoffset=35   xadvance=31   page=0    chnl=0
char id=44    x=989  y=510  width=25   height=28   xoffset=0    yoffset=57   xadvance=19   page=0    chnl=0
char id=45    x=255  y=559  width=35   height=18   xoffset=0    yoffset=45   xadvance=29   page=0    chnl=0
char id=46    x=230  y=559  width=23   height=20   xoffset=1    yoffset=56   xadvance=19   page=0    chnl=0
char id=47    x=223  y=346  width=35   height=56   xoffset=-2   yoffset=25   xadvance=26   page=0    chnl=0
char id=48    x=0    y=460  width=43   height=48   xoffset=0    yoffset=28   xadvance=37   page=0    chnl=0
char id=49    x=981  y=460  width=32   height=47   xoffset=0    yoffset=29   xadvance=26   page=0    chnl=0
char id=50    x=348  y=460  width=38   height=48   xoffset=-1   yoffset=28   xadvance=31   page=0    chnl=0
char id=51    x=84   y=510  width=37   height=47   xoffset=0    yoffset=29   xadvance=31   page=0    chnl=0
char id=52    x=39   y=510  width=43   height=47   xoffset=0    yoffset=29   xadvance=37   page=0    chnl=0
char id=53    x=0    y=510  width=37   height=47   xoffset=0    yoffset=29   xadvance=31   page=0    chnl=0
char id=54    x=172  y=460  width=41   height=48   xoffset=0    yoffset=28   xadvance=35   page=0    chnl=0
char id=55    x=942  y=460  width=37   height=47   xoffset=0    yoffset=29   xadvance=31   page=0    chnl=0
char id=56    x=88   y=460  width=39   height=48   xoffset=0    yoffset=28   xadvance=33   page=0    chnl=0
char id=57    x=45   y=460  width=41   height=48   xoffset=0    yoffset=28   xadvance=35   page=0    chnl=0
char id=58    x=861  y=510  width=23   height=39   xoffset=1    yoffset=36   xadvance=19   page=0    chnl=0
char id=59    x=292  y=510  width=24   height=46   xoffset=1    yoffset=36   xadvance=19   page=0    chnl=0
char id=60    x=886  y=510  width=31   height=36   xoffset=0    yoffset=36   xadvance=24   page=0    chnl=0
char id=61    x=0    y=559  width=36   height=31   xoffset=0    yoffset=37   xadvance=31   page=0    chnl=0
char id=62    x=919  y=510  width=31   height=36   xoffset=0    yoffset=36   xadvance=24   page=0    chnl=0
char id=63    x=612  y=405  width=35   height=50   xoffset=0    yoffset=26   xadvance=29   page=0    chnl=0
char id=64    x=452  y=220  width=57   height=60   xoffset=1    yoffset=27   xadvance=52   page=0    chnl=0
char id=65    x=649  y=405  width=43   height=48   xoffset=-1   yoffset=28   xadvance=37   page=0    chnl=0
char id=66    x=694  y=405  width=42   height=48   xoffset=1    yoffset=28   xadvance=36   page=0    chnl=0
char id=67    x=738  y=405  width=38   height=48   xoffset=0    yoffset=28   xadvance=32   page=0    chnl=0
char id=68    x=778  y=405  width=43   height=48   xoffset=2    yoffset=28   xadvance=39   page=0    chnl=0
char id=69    x=643  y=460  width=36   height=47   xoffset=1    yoffset=29   xadvance=31   page=0    chnl=0
char id=70    x=681  y=460  width=35   height=47   xoffset=1    yoffset=29   xadvance=30   page=0    chnl=0
char id=71    x=823  y=405  width=41   height=48   xoffset=0    yoffset=28   xadvance=35   page=0    chnl=0
char id=72    x=751  y=460  width=42   height=47   xoffset=2    yoffset=29   xadvance=40   page=0    chnl=0
char id=73    x=795  y=460  width=22   height=47   xoffset=2    yoffset=29   xadvance=20   page=0    chnl=0
char id=74    x=428  y=346  width=25   height=54   xoffset=-1   yoffset=29   xadvance=20   page=0    chnl=0
char id=75    x=819  y=460  width=43   height=47   xoffset=1    yoffset=29   xadvance=37   page=0    chnl=0
char id=76    x=864  y=460  width=32   height=47   xoffset=1    yoffset=29   xadvance=26   page=0    chnl=0
char id=77    x=866  y=405  width=60   height=48   xoffset=0    yoffset=28   xadvance=54   page=0    chnl=0
char id=78    x=898  y=460  width=42   height=47   xoffset=1    yoffset=29   xadvance=38   page=0    chnl=0
char id=79    x=928  y=405  width=45   height=48   xoffset=0    yoffset=28   xadvance=39   page=0    chnl=0
char id=80    x=975  y=405  width=41   height=48   xoffset=2    yoffset=28   xadvance=37   page=0    chnl=0
char id=81    x=928  y=220  width=45   height=59   xoffset=0    yoffset=28   xadvance=39   page=0    chnl=0
char id=82    x=215  y=460  width=42   height=48   xoffset=1    yoffset=28   xadvance=36   page=0    chnl=0
char id=83    x=259  y=460  width=39   height=48   xoffset=0    yoffset=28   xadvance=33   page=0    chnl=0
char id=84    x=123  y=510  width=40   height=47   xoffset=0    yoffset=29   xadvance=34   page=0    chnl=0
char id=85    x=165  y=510  width=42   height=47   xoffset=1    yoffset=29   xadvance=38   page=0    chnl=0
char id=86    x=300  y=460  width=46   height=48   xoffset=-2   yoffset=28   xadvance=37   page=0    chnl=0
char id=87    x=388  y=460  width=62   height=48   xoffset=-1   yoffset=28   xadvance=55   page=0    chnl=0
char id=88    x=452  y=460  width=44   height=48   xoffset=-1   yoffset=28   xadvance=37   page=0    chnl=0
char id=89    x=498  y=460  width=43   height=48   xoffset=-1   yoffset=28   xadvance=36   page=0    chnl=0
char id=90    x=209  y=510  width=37   height=47   xoffset=0    yoffset=29   xadvance=31   page=0    chnl=0
char id=91    x=153  y=285  width=28   height=58   xoffset=1    yoffset=25   xadvance=23   page=0    chnl=0
char id=92    x=276  y=285  width=32   height=58   xoffset=0    yoffset=25   xadvance=26   page=0    chnl=0
char id=93    x=183  y=285  width=29   height=58   xoffset=0    yoffset=25   xadvance=24   page=0    chnl=0
char id=94    x=72   y=559  width=34   height=30   xoffset=1    yoffset=26   xadvance=30   page=0    chnl=0
char id=95    x=292  y=559  width=30   height=17   xoffset=0    yoffset=69   xadvance=24   page=0    chnl=0
char id=96    x=170  y=559  width=24   height=22   xoffset=0    yoffset=14   xadvance=19   page=0    chnl=0
char id=97    x=396  y=510  width=38   height=42   xoffset=0    yoffset=34   xadvance=30   page=0    chnl=0
char id=98    x=39   y=405  width=39   height=51   xoffset=1    yoffset=25   xadvance=33   page=0    chnl=0
char id=99    x=517  y=510  width=34   height=42   xoffset=0    yoffset=34   xadvance=27   page=0    chnl=0
char id=100   x=80   y=405  width=42   height=51   xoffset=0    yoffset=25   xadvance=34   page=0    chnl=0
char id=101   x=436  y=510  width=37   height=42   xoffset=-1   yoffset=34   xadvance=30   page=0    chnl=0
char id=102   x=124  y=405  width=31   height=51   xoffset=0    yoffset=25   xadvance=25   page=0    chnl=0
char id=103   x=424  y=405  width=38   height=50   xoffset=0    yoffset=35   xadvance=33   page=0    chnl=0
char id=104   x=157  y=405  width=38   height=51   xoffset=1    yoffset=25   xadvance=33   page=0    chnl=0
char id=105   x=617  y=346  width=22   height=54   xoffset=1    yoffset=22   xadvance=18   page=0    chnl=0
char id=106   x=988  y=81   width=24   height=63   xoffset=-1   yoffset=22   xadvance=18   page=0    chnl=0
char id=107   x=197  y=405  width=39   height=51   xoffset=1    yoffset=25   xadvance=32   page=0    chnl=0
char id=108   x=285  y=405  width=24   height=51   xoffset=1    yoffset=25   xadvance=17   page=0    chnl=0
char id=109   x=768  y=510  width=54   height=41   xoffset=1    yoffset=35   xadvance=49   page=0    chnl=0
char id=110   x=728  y=510  width=38   height=41   xoffset=1    yoffset=35   xadvance=33   page=0    chnl=0
char id=111   x=355  y=510  width=39   height=42   xoffset=0    yoffset=34   xadvance=33   page=0    chnl=0
char id=112   x=464  y=405  width=39   height=50   xoffset=1    yoffset=35   xadvance=33   page=0    chnl=0
char id=113   x=505  y=405  width=38   height=50   xoffset=0    yoffset=35   xadvance=33   page=0    chnl=0
char id=114   x=695  y=510  width=31   height=41   xoffset=1    yoffset=35   xadvance=25   page=0    chnl=0
char id=115   x=318  y=510  width=35   height=42   xoffset=0    yoffset=34   xadvance=29   page=0    chnl=0
char id=116   x=718  y=460  width=31   height=47   xoffset=0    yoffset=29   xadvance=25   page=0    chnl=0
char id=117   x=652  y=510  width=41   height=41   xoffset=1    yoffset=35   xadvance=34   page=0    chnl=0
char id=118   x=553  y=510  width=40   height=42   xoffset=-1   yoffset=34   xadvance=32   page=0    chnl=0
char id=119   x=595  y=510  width=55   height=42   xoffset=-1   yoffset=34   xadvance=48   page=0    chnl=0
char id=120   x=475  y=510  width=40   height=42   xoffset=-1   yoffset=34   xadvance=32   page=0    chnl=0
char id=121   x=545  y=405  width=39   height=50   xoffset=0    yoffset=35   xadvance=33   page=0    chnl=0
char id=122   x=824  y=510  width=35   height=40   xoffset=0    yoffset=36   xadvance=29   page=0    chnl=0
char id=123   x=214  y=285  width=29   height=58   xoffset=1    yoffset=25   xadvance=24   page=0    chnl=0
char id=124   x=982  y=153  width=17   height=61   xoffset=2    yoffset=23   xadvance=15   page=0    chnl=0
char id=125   x=245  y=285  width=29   height=58   xoffset=1    yoffset=25   xadvance=25   page=0    chnl=0
char id=126   x=196  y=559  width=32   height=22   xoffset=0    yoffset=42   xadvance=26   page=0    chnl=0
char id=192   x=426  y=153  width=44   height=63   xoffset=-1   yoffset=13   xadvance=37   page=0    chnl=0
char id=193   x=380  y=153  width=44   height=63   xoffset=-1   yoffset=13   xadvance=37   page=0    chnl=0
char id=194   x=690  y=220  width=44   height=60   xoffset=-1   yoffset=16   xadvance=37   page=0    chnl=0
char id=195   x=599  y=220  width=44   height=60   xoffset=-1   yoffset=16   xadvance=37   page=0    chnl=0
char id=199   x=888  y=220  width=38   height=60   xoffset=0    yoffset=28   xadvance=32   page=0    chnl=0
char id=200   x=648  y=153  width=36   height=63   xoffset=1    yoffset=13   xadvance=31   page=0    chnl=0
char id=201   x=610  y=153  width=36   height=63   xoffset=1    yoffset=13   xadvance=31   page=0    chnl=0
char id=202   x=818  y=220  width=36   height=60   xoffset=1    yoffset=16   xadvance=31   page=0    chnl=0
char id=204   x=932  y=153  width=24   height=63   xoffset=0    yoffset=13   xadvance=19   page=0    chnl=0
char id=205   x=906  y=153  width=24   height=63   xoffset=2    yoffset=13   xadvance=20   page=0    chnl=0
char id=209   x=736  y=220  width=42   height=60   xoffset=1    yoffset=16   xadvance=38   page=0    chnl=0
char id=210   x=95   y=153  width=45   height=64   xoffset=0    yoffset=12   xadvance=39   page=0    chnl=0
char id=211   x=724  y=153  width=45   height=63   xoffset=0    yoffset=13   xadvance=39   page=0    chnl=0
char id=212   x=311  y=220  width=45   height=61   xoffset=0    yoffset=15   xadvance=39   page=0    chnl=0
char id=213   x=264  y=220  width=45   height=61   xoffset=0    yoffset=15   xadvance=39   page=0    chnl=0
char id=217   x=862  y=153  width=42   height=63   xoffset=1    yoffset=13   xadvance=38   page=0    chnl=0
char id=218   x=818  y=153  width=42   height=63   xoffset=1    yoffset=13   xadvance=38   page=0    chnl=0
char id=221   x=0    y=220  width=43   height=63   xoffset=-1   yoffset=13   xadvance=36   page=0    chnl=0
char id=224   x=851  y=285  width=38   height=57   xoffset=0    yoffset=19   xadvance=30   page=0    chnl=0
char id=225   x=977  y=285  width=38   height=57   xoffset=0    yoffset=19   xadvance=30   page=0    chnl=0
char id=226   x=641  y=346  width=38   height=54   xoffset=0    yoffset=22   xadvance=30   page=0    chnl=0
char id=227   x=577  y=346  width=38   height=54   xoffset=0    yoffset=22   xadvance=30   page=0    chnl=0
char id=231   x=892  y=346  width=34   height=54   xoffset=0    yoffset=34   xadvance=27   page=0    chnl=0
char id=232   x=771  y=285  width=37   height=57   xoffset=0    yoffset=19   xadvance=31   page=0    chnl=0
char id=233   x=66   y=346  width=36   height=57   xoffset=0    yoffset=19   xadvance=30   page=0    chnl=0
char id=234   x=299  y=346  width=36   height=55   xoffset=0    yoffset=21   xadvance=30   page=0    chnl=0
char id=236   x=530  y=285  width=25   height=57   xoffset=-2   yoffset=19   xadvance=18   page=0    chnl=0
char id=237   x=504  y=285  width=24   height=57   xoffset=1    yoffset=19   xadvance=18   page=0    chnl=0
char id=241   x=812  y=346  width=38   height=54   xoffset=1    yoffset=22   xadvance=33   page=0    chnl=0
char id=242   x=810  y=285  width=39   height=57   xoffset=0    yoffset=19   xadvance=33   page=0    chnl=0
char id=243   x=104  y=346  width=39   height=57   xoffset=0    yoffset=19   xadvance=33   page=0    chnl=0
char id=244   x=337  y=346  width=39   height=55   xoffset=0    yoffset=21   xadvance=33   page=0    chnl=0
char id=245   x=771  y=346  width=39   height=54   xoffset=0    yoffset=22   xadvance=33   page=0    chnl=0
char id=249   x=891  y=285  width=41   height=57   xoffset=1    yoffset=19   xadvance=34   page=0    chnl=0
char id=250   x=934  y=285  width=41   height=57   xoffset=1    yoffset=19   xadvance=34   page=0    chnl=0
char id=253   x=947  y=81   width=39   height=65   xoffset=-1   yoffset=20   xadvance=32   page=0    chnl=0
char id=258   x=518  y=153  width=44   height=63   xoffset=-1   yoffset=13   xadvance=37   page=0    chnl=0
char id=259   x=183  y=346  width=38   height=57   xoffset=0    yoffset=19   xadvance=30   page=0    chnl=0
char id=272   x=590  y=460  width=51   height=48   xoffset=-6   yoffset=28   xadvance=39   page=0    chnl=0
char id=273   x=238  y=405  width=45   height=51   xoffset=0    yoffset=25   xadvance=34   page=0    chnl=0
char id=296   x=856  y=220  width=30   height=60   xoffset=-2   yoffset=16   xadvance=20   page=0    chnl=0
char id=297   x=502  y=346  width=30   height=54   xoffset=-3   yoffset=22   xadvance=18   page=0    chnl=0
char id=360   x=358  y=220  width=42   height=61   xoffset=1    yoffset=15   xadvance=38   page=0    chnl=0
char id=361   x=534  y=346  width=41   height=54   xoffset=1    yoffset=22   xadvance=34   page=0    chnl=0
char id=416   x=455  y=346  width=45   height=54   xoffset=0    yoffset=22   xadvance=39   page=0    chnl=0
char id=417   x=129  y=460  width=41   height=48   xoffset=0    yoffset=28   xadvance=33   page=0    chnl=0
char id=431   x=378  y=346  width=48   height=55   xoffset=1    yoffset=21   xadvance=38   page=0    chnl=0
char id=432   x=543  y=460  width=45   height=48   xoffset=1    yoffset=28   xadvance=34   page=0    chnl=0
char id=7840  x=645  y=220  width=43   height=60   xoffset=-1   yoffset=28   xadvance=36   page=0    chnl=0
char id=7841  x=852  y=346  width=38   height=54   xoffset=0    yoffset=34   xadvance=30   page=0    chnl=0
char id=7842  x=472  y=153  width=44   height=63   xoffset=-1   yoffset=13   xadvance=37   page=0    chnl=0
char id=7843  x=731  y=285  width=38   height=57   xoffset=0    yoffset=19   xadvance=30   page=0    chnl=0
char id=7844  x=133  y=2    width=44   height=76   xoffset=-1   yoffset=0    xadvance=37   page=0    chnl=0
char id=7845  x=924  y=2    width=38   height=70   xoffset=0    yoffset=6    xadvance=30   page=0    chnl=0
char id=7846  x=179  y=2    width=44   height=75   xoffset=-1   yoffset=1    xadvance=37   page=0    chnl=0
char id=7847  x=41   y=81   width=38   height=69   xoffset=0    yoffset=7    xadvance=30   page=0    chnl=0
char id=7848  x=225  y=2    width=44   height=75   xoffset=-1   yoffset=1    xadvance=37   page=0    chnl=0
char id=7849  x=81   y=81   width=38   height=69   xoffset=0    yoffset=7    xadvance=30   page=0    chnl=0
char id=7850  x=676  y=2    width=44   height=73   xoffset=-1   yoffset=3    xadvance=37   page=0    chnl=0
char id=7851  x=580  y=81   width=38   height=67   xoffset=0    yoffset=9    xadvance=31   page=0    chnl=0
char id=7852  x=800  y=2    width=44   height=72   xoffset=-1   yoffset=16   xadvance=37   page=0    chnl=0
char id=7853  x=820  y=81   width=38   height=66   xoffset=0    yoffset=22   xadvance=30   page=0    chnl=0
char id=7854  x=271  y=2    width=44   height=75   xoffset=-1   yoffset=1    xadvance=37   page=0    chnl=0
char id=7855  x=964  y=2    width=38   height=70   xoffset=0    yoffset=6    xadvance=31   page=0    chnl=0
char id=7856  x=2    y=2    width=44   height=77   xoffset=-1   yoffset=-1   xadvance=37   page=0    chnl=0
char id=7857  x=121  y=81   width=38   height=69   xoffset=0    yoffset=7    xadvance=30   page=0    chnl=0
char id=7858  x=487  y=2    width=44   height=74   xoffset=-1   yoffset=2    xadvance=37   page=0    chnl=0
char id=7859  x=332  y=81   width=38   height=68   xoffset=0    yoffset=8    xadvance=30   page=0    chnl=0
char id=7860  x=533  y=2    width=47   height=74   xoffset=-1   yoffset=2    xadvance=38   page=0    chnl=0
char id=7861  x=860  y=81   width=44   height=66   xoffset=0    yoffset=10   xadvance=31   page=0    chnl=0
char id=7862  x=564  y=153  width=44   height=63   xoffset=-1   yoffset=13   xadvance=37   page=0    chnl=0
char id=7863  x=372  y=81   width=38   height=68   xoffset=0    yoffset=20   xadvance=30   page=0    chnl=0
char id=7864  x=68   y=285  width=36   height=59   xoffset=1    yoffset=29   xadvance=31   page=0    chnl=0
char id=7865  x=0    y=405  width=37   height=53   xoffset=-1   yoffset=34   xadvance=30   page=0    chnl=0
char id=7866  x=686  y=153  width=36   height=63   xoffset=1    yoffset=13   xadvance=31   page=0    chnl=0
char id=7867  x=145  y=346  width=36   height=57   xoffset=0    yoffset=19   xadvance=30   page=0    chnl=0
char id=7868  x=780  y=220  width=36   height=60   xoffset=1    yoffset=16   xadvance=31   page=0    chnl=0
char id=7869  x=260  y=346  width=37   height=55   xoffset=-1   yoffset=21   xadvance=30   page=0    chnl=0
char id=7870  x=48   y=2    width=36   height=77   xoffset=1    yoffset=-1   xadvance=31   page=0    chnl=0
char id=7871  x=846  y=2    width=37   height=71   xoffset=-1   yoffset=5    xadvance=30   page=0    chnl=0
char id=7872  x=317  y=2    width=36   height=75   xoffset=1    yoffset=1    xadvance=31   page=0    chnl=0
char id=7873  x=885  y=2    width=37   height=71   xoffset=-1   yoffset=5    xadvance=30   page=0    chnl=0
char id=7874  x=355  y=2    width=36   height=75   xoffset=1    yoffset=1    xadvance=31   page=0    chnl=0
char id=7875  x=161  y=81   width=37   height=69   xoffset=-1   yoffset=7    xadvance=30   page=0    chnl=0
char id=7876  x=722  y=2    width=38   height=73   xoffset=1    yoffset=3    xadvance=31   page=0    chnl=0
char id=7877  x=453  y=81   width=39   height=68   xoffset=-1   yoffset=8    xadvance=31   page=0    chnl=0
char id=7878  x=762  y=2    width=36   height=73   xoffset=1    yoffset=16   xadvance=31   page=0    chnl=0
char id=7879  x=494  y=81   width=37   height=68   xoffset=-1   yoffset=21   xadvance=30   page=0    chnl=0
char id=7880  x=958  y=153  width=22   height=63   xoffset=2    yoffset=13   xadvance=20   page=0    chnl=0
char id=7881  x=43   y=346  width=21   height=57   xoffset=1    yoffset=19   xadvance=17   page=0    chnl=0
char id=7882  x=0    y=285  width=22   height=59   xoffset=2    yoffset=29   xadvance=20   page=0    chnl=0
char id=7883  x=702  y=81   width=22   height=66   xoffset=1    yoffset=22   xadvance=18   page=0    chnl=0
char id=7884  x=106  y=285  width=45   height=59   xoffset=0    yoffset=28   xadvance=39   page=0    chnl=0
char id=7885  x=928  y=346  width=39   height=53   xoffset=0    yoffset=34   xadvance=33   page=0    chnl=0
char id=7886  x=142  y=153  width=45   height=64   xoffset=0    yoffset=12   xadvance=39   page=0    chnl=0
char id=7887  x=604  y=285  width=39   height=57   xoffset=0    yoffset=19   xadvance=33   page=0    chnl=0
char id=7888  x=86   y=2    width=45   height=77   xoffset=0    yoffset=-1   xadvance=39   page=0    chnl=0
char id=7889  x=0    y=81   width=39   height=70   xoffset=0    yoffset=6    xadvance=33   page=0    chnl=0
char id=7890  x=393  y=2    width=45   height=75   xoffset=0    yoffset=1    xadvance=39   page=0    chnl=0
char id=7891  x=200  y=81   width=39   height=69   xoffset=0    yoffset=7    xadvance=33   page=0    chnl=0
char id=7892  x=440  y=2    width=45   height=75   xoffset=0    yoffset=1    xadvance=39   page=0    chnl=0
char id=7893  x=241  y=81   width=39   height=69   xoffset=0    yoffset=7    xadvance=32   page=0    chnl=0
char id=7894  x=582  y=2    width=45   height=74   xoffset=0    yoffset=2    xadvance=39   page=0    chnl=0
char id=7895  x=620  y=81   width=39   height=67   xoffset=0    yoffset=9    xadvance=33   page=0    chnl=0
char id=7896  x=629  y=2    width=45   height=74   xoffset=0    yoffset=15   xadvance=39   page=0    chnl=0
char id=7897  x=412  y=81   width=39   height=68   xoffset=0    yoffset=21   xadvance=33   page=0    chnl=0
char id=7898  x=726  y=81   width=45   height=66   xoffset=0    yoffset=10   xadvance=39   page=0    chnl=0
char id=7899  x=645  y=285  width=41   height=57   xoffset=0    yoffset=19   xadvance=33   page=0    chnl=0
char id=7900  x=773  y=81   width=45   height=66   xoffset=0    yoffset=10   xadvance=39   page=0    chnl=0
char id=7901  x=975  y=220  width=41   height=59   xoffset=0    yoffset=17   xadvance=33   page=0    chnl=0
char id=7902  x=189  y=153  width=45   height=64   xoffset=0    yoffset=12   xadvance=39   page=0    chnl=0
char id=7903  x=0    y=346  width=41   height=57   xoffset=0    yoffset=19   xadvance=33   page=0    chnl=0
char id=7904  x=771  y=153  width=45   height=63   xoffset=0    yoffset=13   xadvance=39   page=0    chnl=0
char id=7905  x=688  y=285  width=41   height=57   xoffset=0    yoffset=19   xadvance=33   page=0    chnl=0
char id=7906  x=533  y=81   width=45   height=67   xoffset=0    yoffset=22   xadvance=39   page=0    chnl=0
char id=7907  x=556  y=220  width=41   height=60   xoffset=0    yoffset=28   xadvance=33   page=0    chnl=0
char id=7908  x=24   y=285  width=42   height=59   xoffset=1    yoffset=29   xadvance=38   page=0    chnl=0
char id=7909  x=681  y=346  width=41   height=54   xoffset=1    yoffset=35   xadvance=34   page=0    chnl=0
char id=7910  x=236  y=153  width=42   height=64   xoffset=1    yoffset=12   xadvance=38   page=0    chnl=0
char id=7911  x=404  y=285  width=41   height=57   xoffset=1    yoffset=19   xadvance=34   page=0    chnl=0
char id=7912  x=280  y=153  width=48   height=64   xoffset=1    yoffset=12   xadvance=38   page=0    chnl=0
char id=7913  x=310  y=285  width=45   height=58   xoffset=1    yoffset=18   xadvance=34   page=0    chnl=0
char id=7914  x=0    y=153  width=48   height=65   xoffset=1    yoffset=11   xadvance=38   page=0    chnl=0
char id=7915  x=357  y=285  width=45   height=58   xoffset=1    yoffset=18   xadvance=34   page=0    chnl=0
char id=7916  x=330  y=153  width=48   height=64   xoffset=1    yoffset=12   xadvance=38   page=0    chnl=0
char id=7917  x=557  y=285  width=45   height=57   xoffset=1    yoffset=19   xadvance=34   page=0    chnl=0
char id=7918  x=402  y=220  width=48   height=61   xoffset=1    yoffset=15   xadvance=38   page=0    chnl=0
char id=7919  x=724  y=346  width=45   height=54   xoffset=1    yoffset=22   xadvance=34   page=0    chnl=0
char id=7920  x=282  y=81   width=48   height=68   xoffset=1    yoffset=21   xadvance=38   page=0    chnl=0
char id=7921  x=172  y=220  width=45   height=61   xoffset=1    yoffset=28   xadvance=34   page=0    chnl=0
char id=7922  x=50   y=153  width=43   height=65   xoffset=-1   yoffset=11   xadvance=36   page=0    chnl=0
char id=7923  x=661  y=81   width=39   height=66   xoffset=0    yoffset=19   xadvance=33   page=0    chnl=0
char id=7924  x=219  y=220  width=43   height=61   xoffset=-1   yoffset=28   xadvance=36   page=0    chnl=0
char id=7925  x=969  y=346  width=43   height=53   xoffset=0    yoffset=35   xadvance=32   page=0    chnl=0
char id=7926  x=45   y=220  width=43   height=63   xoffset=-1   yoffset=13   xadvance=36   page=0    chnl=0
char id=7927  x=906  y=81   width=39   height=65   xoffset=0    yoffset=20   xadvance=33   page=0    chnl=0
char id=7928  x=511  y=220  width=43   height=60   xoffset=-1   yoffset=16   xadvance=36   page=0    chnl=0
char id=7929  x=131  y=220  width=39   height=62   xoffset=0    yoffset=23   xadvance=33   page=0    chnl=0
kernings count=0
