info face="" size=12 bold=0 italic=0 charset="" unicode=1 stretchH=100 smooth=1 aa=2 padding=1,1,1,1 spacing=-2,-28
common lineHeight=54 base=47 scaleW=1024 scaleH=1024 pages=1 packed=0 alphaChnl=0 redChnl=0 greenChnl=0 blueChnl=0
page id=0 file="font_normal.png"
chars count=231
char id=32    x=0    y=0    width=0    height=0    xoffset=-1   yoffset=-1   xadvance=16   page=0    chnl=0
char id=33    x=993  y=183  width=23   height=49   xoffset=0    yoffset=7    xadvance=18   page=0    chnl=0
char id=34    x=38   y=482  width=28   height=25   xoffset=1    yoffset=12   xadvance=23   page=0    chnl=0
char id=35    x=718  y=388  width=33   height=45   xoffset=1    yoffset=9    xadvance=29   page=0    chnl=0
char id=36    x=564  y=183  width=38   height=51   xoffset=1    yoffset=5    xadvance=32   page=0    chnl=0
char id=37    x=855  y=238  width=44   height=48   xoffset=1    yoffset=8    xadvance=40   page=0    chnl=0
char id=38    x=604  y=183  width=38   height=51   xoffset=0    yoffset=5    xadvance=31   page=0    chnl=0
char id=39    x=997  y=436  width=19   height=25   xoffset=1    yoffset=11   xadvance=15   page=0    chnl=0
char id=40    x=0    y=238  width=25   height=49   xoffset=1    yoffset=7    xadvance=20   page=0    chnl=0
char id=41    x=27   y=238  width=24   height=49   xoffset=1    yoffset=7    xadvance=20   page=0    chnl=0
char id=42    x=964  y=436  width=31   height=29   xoffset=-1   yoffset=12   xadvance=24   page=0    chnl=0
char id=43    x=914  y=436  width=26   height=31   xoffset=1    yoffset=18   xadvance=22   page=0    chnl=0
char id=44    x=105  y=482  width=22   height=23   xoffset=0    yoffset=35   xadvance=15   page=0    chnl=0
char id=45    x=176  y=482  width=20   height=18   xoffset=1    yoffset=27   xadvance=16   page=0    chnl=0
char id=46    x=129  y=482  width=21   height=18   xoffset=1    yoffset=38   xadvance=18   page=0    chnl=0
char id=47    x=813  y=238  width=40   height=48   xoffset=-1   yoffset=8    xadvance=32   page=0    chnl=0
char id=48    x=41   y=388  width=43   height=46   xoffset=1    yoffset=10   xadvance=39   page=0    chnl=0
char id=49    x=991  y=339  width=23   height=46   xoffset=0    yoffset=9    xadvance=19   page=0    chnl=0
char id=50    x=205  y=339  width=35   height=47   xoffset=1    yoffset=8    xadvance=31   page=0    chnl=0
char id=51    x=242  y=339  width=37   height=47   xoffset=1    yoffset=8    xadvance=32   page=0    chnl=0
char id=52    x=283  y=388  width=42   height=45   xoffset=0    yoffset=9    xadvance=37   page=0    chnl=0
char id=53    x=281  y=339  width=37   height=47   xoffset=1    yoffset=10   xadvance=32   page=0    chnl=0
char id=54    x=711  y=238  width=40   height=48   xoffset=1    yoffset=7    xadvance=36   page=0    chnl=0
char id=55    x=171  y=388  width=37   height=46   xoffset=0    yoffset=8    xadvance=30   page=0    chnl=0
char id=56    x=443  y=339  width=43   height=47   xoffset=1    yoffset=8    xadvance=37   page=0    chnl=0
char id=57    x=530  y=339  width=39   height=47   xoffset=0    yoffset=9    xadvance=33   page=0    chnl=0
char id=58    x=891  y=436  width=21   height=35   xoffset=1    yoffset=21   xadvance=18   page=0    chnl=0
char id=59    x=610  y=436  width=22   height=39   xoffset=-1   yoffset=20   xadvance=16   page=0    chnl=0
char id=60    x=753  y=238  width=28   height=48   xoffset=0    yoffset=8    xadvance=22   page=0    chnl=0
char id=61    x=942  y=436  width=20   height=30   xoffset=1    yoffset=20   xadvance=16   page=0    chnl=0
char id=62    x=783  y=238  width=28   height=48   xoffset=0    yoffset=8    xadvance=22   page=0    chnl=0
char id=63    x=571  y=339  width=34   height=47   xoffset=0    yoffset=8    xadvance=29   page=0    chnl=0
char id=64    x=358  y=339  width=40   height=47   xoffset=1    yoffset=8    xadvance=36   page=0    chnl=0
char id=65    x=91   y=289  width=49   height=47   xoffset=-2   yoffset=8    xadvance=41   page=0    chnl=0
char id=66    x=142  y=289  width=46   height=47   xoffset=1    yoffset=8    xadvance=41   page=0    chnl=0
char id=67    x=327  y=388  width=38   height=45   xoffset=1    yoffset=10   xadvance=33   page=0    chnl=0
char id=68    x=369  y=238  width=47   height=48   xoffset=0    yoffset=7    xadvance=42   page=0    chnl=0
char id=69    x=233  y=289  width=38   height=47   xoffset=0    yoffset=8    xadvance=33   page=0    chnl=0
char id=70    x=315  y=289  width=36   height=47   xoffset=1    yoffset=8    xadvance=32   page=0    chnl=0
char id=71    x=873  y=183  width=42   height=50   xoffset=1    yoffset=7    xadvance=38   page=0    chnl=0
char id=72    x=394  y=289  width=41   height=47   xoffset=1    yoffset=8    xadvance=38   page=0    chnl=0
char id=73    x=964  y=388  width=19   height=44   xoffset=2    yoffset=11   xadvance=17   page=0    chnl=0
char id=74    x=458  y=238  width=34   height=48   xoffset=0    yoffset=8    xadvance=30   page=0    chnl=0
char id=75    x=498  y=388  width=42   height=45   xoffset=1    yoffset=10   xadvance=37   page=0    chnl=0
char id=76    x=735  y=339  width=34   height=46   xoffset=2    yoffset=9    xadvance=30   page=0    chnl=0
char id=77    x=480  y=289  width=54   height=47   xoffset=0    yoffset=8    xadvance=49   page=0    chnl=0
char id=78    x=813  y=339  width=44   height=46   xoffset=2    yoffset=9    xadvance=42   page=0    chnl=0
char id=79    x=537  y=238  width=45   height=48   xoffset=1    yoffset=8    xadvance=41   page=0    chnl=0
char id=80    x=665  y=289  width=46   height=47   xoffset=0    yoffset=8    xadvance=40   page=0    chnl=0
char id=81    x=94   y=183  width=44   height=52   xoffset=1    yoffset=7    xadvance=40   page=0    chnl=0
char id=82    x=859  y=339  width=45   height=46   xoffset=0    yoffset=9    xadvance=39   page=0    chnl=0
char id=83    x=633  y=238  width=38   height=48   xoffset=1    yoffset=8    xadvance=34   page=0    chnl=0
char id=84    x=583  y=388  width=41   height=45   xoffset=0    yoffset=10   xadvance=35   page=0    chnl=0
char id=85    x=79   y=436  width=42   height=44   xoffset=1    yoffset=10   xadvance=39   page=0    chnl=0
char id=86    x=626  y=388  width=43   height=45   xoffset=0    yoffset=10   xadvance=37   page=0    chnl=0
char id=87    x=795  y=289  width=58   height=47   xoffset=0    yoffset=8    xadvance=52   page=0    chnl=0
char id=88    x=855  y=289  width=46   height=47   xoffset=-1   yoffset=8    xadvance=37   page=0    chnl=0
char id=89    x=671  y=388  width=45   height=45   xoffset=0    yoffset=9    xadvance=39   page=0    chnl=0
char id=90    x=673  y=238  width=36   height=48   xoffset=0    yoffset=7    xadvance=30   page=0    chnl=0
char id=91    x=990  y=289  width=25   height=47   xoffset=2    yoffset=8    xadvance=21   page=0    chnl=0
char id=92    x=320  y=339  width=36   height=47   xoffset=-1   yoffset=9    xadvance=28   page=0    chnl=0
char id=93    x=985  y=238  width=25   height=46   xoffset=1    yoffset=9    xadvance=21   page=0    chnl=0
char id=94    x=0    y=482  width=36   height=26   xoffset=-1   yoffset=13   xadvance=28   page=0    chnl=0
char id=95    x=198  y=482  width=29   height=18   xoffset=1    yoffset=37   xadvance=25   page=0    chnl=0
char id=96    x=152  y=482  width=22   height=18   xoffset=0    yoffset=14   xadvance=15   page=0    chnl=0
char id=97    x=391  y=436  width=38   height=39   xoffset=0    yoffset=16   xadvance=33   page=0    chnl=0
char id=98    x=948  y=289  width=40   height=47   xoffset=2    yoffset=8    xadvance=36   page=0    chnl=0
char id=99    x=813  y=436  width=35   height=37   xoffset=0    yoffset=16   xadvance=29   page=0    chnl=0
char id=100   x=0    y=339  width=41   height=47   xoffset=0    yoffset=8    xadvance=37   page=0    chnl=0
char id=101   x=524  y=436  width=40   height=39   xoffset=1    yoffset=16   xadvance=35   page=0    chnl=0
char id=102   x=43   y=339  width=36   height=47   xoffset=1    yoffset=7    xadvance=31   page=0    chnl=0
char id=103   x=81   y=339  width=38   height=47   xoffset=0    yoffset=15   xadvance=33   page=0    chnl=0
char id=104   x=634  y=436  width=37   height=39   xoffset=1    yoffset=16   xadvance=33   page=0    chnl=0
char id=105   x=985  y=388  width=18   height=44   xoffset=2    yoffset=10   xadvance=16   page=0    chnl=0
char id=106   x=981  y=67   width=31   height=54   xoffset=-10  yoffset=8    xadvance=17   page=0    chnl=0
char id=107   x=753  y=388  width=39   height=45   xoffset=1    yoffset=10   xadvance=33   page=0    chnl=0
char id=108   x=794  y=388  width=20   height=45   xoffset=2    yoffset=9    xadvance=18   page=0    chnl=0
char id=109   x=431  y=436  width=49   height=39   xoffset=1    yoffset=16   xadvance=45   page=0    chnl=0
char id=110   x=349  y=436  width=40   height=39   xoffset=1    yoffset=16   xadvance=37   page=0    chnl=0
char id=111   x=482  y=436  width=40   height=39   xoffset=1    yoffset=16   xadvance=36   page=0    chnl=0
char id=112   x=857  y=388  width=40   height=45   xoffset=2    yoffset=16   xadvance=36   page=0    chnl=0
char id=113   x=949  y=339  width=40   height=46   xoffset=1    yoffset=16   xadvance=36   page=0    chnl=0
char id=114   x=308  y=436  width=39   height=40   xoffset=2    yoffset=16   xadvance=35   page=0    chnl=0
char id=115   x=271  y=436  width=35   height=40   xoffset=0    yoffset=16   xadvance=29   page=0    chnl=0
char id=116   x=0    y=388  width=39   height=46   xoffset=-1   yoffset=9    xadvance=31   page=0    chnl=0
char id=117   x=850  y=436  width=39   height=37   xoffset=1    yoffset=17   xadvance=35   page=0    chnl=0
char id=118   x=673  y=436  width=40   height=39   xoffset=0    yoffset=16   xadvance=33   page=0    chnl=0
char id=119   x=715  y=436  width=53   height=39   xoffset=0    yoffset=16   xadvance=47   page=0    chnl=0
char id=120   x=566  y=436  width=42   height=39   xoffset=-1   yoffset=16   xadvance=34   page=0    chnl=0
char id=121   x=770  y=436  width=41   height=38   xoffset=0    yoffset=16   xadvance=35   page=0    chnl=0
char id=122   x=236  y=436  width=33   height=40   xoffset=0    yoffset=15   xadvance=28   page=0    chnl=0
char id=123   x=917  y=183  width=26   height=50   xoffset=0    yoffset=7    xadvance=20   page=0    chnl=0
char id=124   x=210  y=388  width=28   height=46   xoffset=0    yoffset=9    xadvance=23   page=0    chnl=0
char id=125   x=53   y=238  width=26   height=49   xoffset=1    yoffset=7    xadvance=21   page=0    chnl=0
char id=126   x=68   y=482  width=35   height=24   xoffset=0    yoffset=13   xadvance=28   page=0    chnl=0
char id=192   x=777  y=67   width=49   height=55   xoffset=-2   yoffset=0    xadvance=41   page=0    chnl=0
char id=193   x=726  y=67   width=49   height=55   xoffset=-2   yoffset=0    xadvance=41   page=0    chnl=0
char id=194   x=930  y=67   width=49   height=55   xoffset=-2   yoffset=0    xadvance=41   page=0    chnl=0
char id=195   x=828  y=67   width=49   height=55   xoffset=-2   yoffset=0    xadvance=41   page=0    chnl=0
char id=199   x=644  y=183  width=38   height=51   xoffset=0    yoffset=8    xadvance=33   page=0    chnl=0
char id=200   x=91   y=126  width=38   height=55   xoffset=0    yoffset=0    xadvance=33   page=0    chnl=0
char id=201   x=51   y=126  width=38   height=55   xoffset=0    yoffset=0    xadvance=33   page=0    chnl=0
char id=202   x=211  y=126  width=38   height=55   xoffset=0    yoffset=0    xadvance=33   page=0    chnl=0
char id=204   x=962  y=126  width=19   height=53   xoffset=2    yoffset=2    xadvance=17   page=0    chnl=0
char id=205   x=940  y=126  width=20   height=53   xoffset=2    yoffset=2    xadvance=17   page=0    chnl=0
char id=210   x=233  y=67   width=45   height=56   xoffset=1    yoffset=0    xadvance=41   page=0    chnl=0
char id=211   x=186  y=67   width=45   height=56   xoffset=1    yoffset=0    xadvance=41   page=0    chnl=0
char id=212   x=251  y=126  width=45   height=55   xoffset=1    yoffset=1    xadvance=41   page=0    chnl=0
char id=213   x=280  y=67   width=45   height=56   xoffset=1    yoffset=0    xadvance=41   page=0    chnl=0
char id=217   x=246  y=183  width=42   height=52   xoffset=1    yoffset=2    xadvance=39   page=0    chnl=0
char id=218   x=202  y=183  width=42   height=52   xoffset=1    yoffset=2    xadvance=39   page=0    chnl=0
char id=221   x=544  y=126  width=45   height=54   xoffset=0    yoffset=0    xadvance=39   page=0    chnl=0
char id=224   x=246  y=238  width=38   height=49   xoffset=0    yoffset=7    xadvance=33   page=0    chnl=0
char id=225   x=329  y=238  width=38   height=49   xoffset=0    yoffset=7    xadvance=33   page=0    chnl=0
char id=226   x=81   y=238  width=38   height=49   xoffset=0    yoffset=7    xadvance=33   page=0    chnl=0
char id=227   x=121  y=238  width=38   height=49   xoffset=0    yoffset=7    xadvance=33   page=0    chnl=0
char id=231   x=0    y=436  width=36   height=44   xoffset=0    yoffset=15   xadvance=29   page=0    chnl=0
char id=232   x=607  y=339  width=40   height=47   xoffset=1    yoffset=8    xadvance=35   page=0    chnl=0
char id=233   x=121  y=339  width=40   height=47   xoffset=1    yoffset=8    xadvance=35   page=0    chnl=0
char id=234   x=488  y=339  width=40   height=47   xoffset=1    yoffset=8    xadvance=35   page=0    chnl=0
char id=236   x=906  y=339  width=19   height=46   xoffset=1    yoffset=8    xadvance=16   page=0    chnl=0
char id=237   x=927  y=339  width=20   height=46   xoffset=2    yoffset=8    xadvance=16   page=0    chnl=0
char id=242   x=623  y=289  width=40   height=47   xoffset=1    yoffset=8    xadvance=36   page=0    chnl=0
char id=243   x=581  y=289  width=40   height=47   xoffset=1    yoffset=8    xadvance=36   page=0    chnl=0
char id=244   x=273  y=289  width=40   height=47   xoffset=1    yoffset=8    xadvance=36   page=0    chnl=0
char id=245   x=753  y=289  width=40   height=47   xoffset=1    yoffset=8    xadvance=36   page=0    chnl=0
char id=249   x=816  y=388  width=39   height=45   xoffset=1    yoffset=9    xadvance=35   page=0    chnl=0
char id=250   x=542  y=388  width=39   height=45   xoffset=1    yoffset=9    xadvance=35   page=0    chnl=0
char id=253   x=240  y=388  width=41   height=45   xoffset=0    yoffset=8    xadvance=35   page=0    chnl=0
char id=258   x=0    y=126  width=49   height=55   xoffset=-2   yoffset=0    xadvance=40   page=0    chnl=0
char id=259   x=418  y=238  width=38   height=48   xoffset=0    yoffset=7    xadvance=33   page=0    chnl=0
char id=272   x=584  y=238  width=47   height=48   xoffset=1    yoffset=7    xadvance=43   page=0    chnl=0
char id=273   x=536  y=289  width=43   height=47   xoffset=0    yoffset=8    xadvance=37   page=0    chnl=0
char id=296   x=983  y=126  width=22   height=53   xoffset=1    yoffset=2    xadvance=17   page=0    chnl=0
char id=297   x=123  y=436  width=23   height=43   xoffset=0    yoffset=11   xadvance=16   page=0    chnl=0
char id=360   x=290  y=183  width=42   height=52   xoffset=1    yoffset=2    xadvance=39   page=0    chnl=0
char id=361   x=38   y=436  width=39   height=44   xoffset=1    yoffset=10   xadvance=35   page=0    chnl=0
char id=416   x=945  y=183  width=46   height=50   xoffset=1    yoffset=6    xadvance=41   page=0    chnl=0
char id=417   x=148  y=436  width=41   height=41   xoffset=1    yoffset=14   xadvance=36   page=0    chnl=0
char id=431   x=0    y=289  width=46   height=48   xoffset=1    yoffset=6    xadvance=39   page=0    chnl=0
char id=432   x=191  y=436  width=43   height=41   xoffset=1    yoffset=13   xadvance=36   page=0    chnl=0
char id=7840  x=879  y=67   width=49   height=55   xoffset=-1   yoffset=8    xadvance=41   page=0    chnl=0
char id=7841  x=713  y=289  width=38   height=47   xoffset=0    yoffset=16   xadvance=33   page=0    chnl=0
char id=7842  x=95   y=67   width=49   height=56   xoffset=-2   yoffset=-1   xadvance=40   page=0    chnl=0
char id=7843  x=161  y=238  width=38   height=49   xoffset=0    yoffset=6    xadvance=33   page=0    chnl=0
char id=7844  x=846  y=2    width=49   height=59   xoffset=-2   yoffset=-4   xadvance=41   page=0    chnl=0
char id=7845  x=807  y=126  width=39   height=53   xoffset=0    yoffset=3    xadvance=33   page=0    chnl=0
char id=7846  x=897  y=2    width=49   height=59   xoffset=-2   yoffset=-4   xadvance=41   page=0    chnl=0
char id=7847  x=767  y=126  width=38   height=53   xoffset=0    yoffset=3    xadvance=33   page=0    chnl=0
char id=7848  x=620  y=2    width=49   height=60   xoffset=-2   yoffset=-5   xadvance=40   page=0    chnl=0
char id=7849  x=685  y=126  width=38   height=54   xoffset=0    yoffset=2    xadvance=33   page=0    chnl=0
char id=7850  x=191  y=2    width=49   height=62   xoffset=-2   yoffset=-7   xadvance=41   page=0    chnl=0
char id=7851  x=566  y=67   width=38   height=56   xoffset=0    yoffset=0    xadvance=33   page=0    chnl=0
char id=7852  x=2    y=2    width=49   height=63   xoffset=-1   yoffset=0    xadvance=41   page=0    chnl=0
char id=7853  x=606  y=67   width=38   height=56   xoffset=0    yoffset=7    xadvance=33   page=0    chnl=0
char id=7854  x=242  y=2    width=49   height=62   xoffset=-2   yoffset=-7   xadvance=40   page=0    chnl=0
char id=7855  x=298  y=126  width=38   height=55   xoffset=0    yoffset=0    xadvance=33   page=0    chnl=0
char id=7856  x=293  y=2    width=49   height=62   xoffset=-2   yoffset=-7   xadvance=40   page=0    chnl=0
char id=7857  x=338  y=126  width=38   height=55   xoffset=0    yoffset=0    xadvance=33   page=0    chnl=0
char id=7858  x=344  y=2    width=49   height=62   xoffset=-2   yoffset=-7   xadvance=40   page=0    chnl=0
char id=7859  x=646  y=67   width=38   height=56   xoffset=0    yoffset=-1   xadvance=33   page=0    chnl=0
char id=7860  x=482  y=2    width=49   height=61   xoffset=-2   yoffset=-6   xadvance=40   page=0    chnl=0
char id=7861  x=462  y=126  width=38   height=54   xoffset=0    yoffset=1    xadvance=33   page=0    chnl=0
char id=7862  x=53   y=2    width=49   height=63   xoffset=-1   yoffset=0    xadvance=41   page=0    chnl=0
char id=7863  x=686  y=67   width=38   height=56   xoffset=0    yoffset=7    xadvance=33   page=0    chnl=0
char id=7864  x=171  y=126  width=38   height=55   xoffset=0    yoffset=8    xadvance=33   page=0    chnl=0
char id=7865  x=129  y=388  width=40   height=46   xoffset=1    yoffset=16   xadvance=35   page=0    chnl=0
char id=7866  x=146  y=67   width=38   height=56   xoffset=0    yoffset=-1   xadvance=33   page=0    chnl=0
char id=7867  x=943  y=238  width=40   height=48   xoffset=1    yoffset=7    xadvance=35   page=0    chnl=0
char id=7868  x=131  y=126  width=38   height=55   xoffset=0    yoffset=0    xadvance=33   page=0    chnl=0
char id=7869  x=163  y=339  width=40   height=47   xoffset=1    yoffset=8    xadvance=35   page=0    chnl=0
char id=7870  x=671  y=2    width=39   height=60   xoffset=0    yoffset=-5   xadvance=33   page=0    chnl=0
char id=7871  x=768  y=183  width=40   height=51   xoffset=1    yoffset=4    xadvance=35   page=0    chnl=0
char id=7872  x=712  y=2    width=38   height=60   xoffset=0    yoffset=-5   xadvance=33   page=0    chnl=0
char id=7873  x=726  y=183  width=40   height=51   xoffset=1    yoffset=4    xadvance=35   page=0    chnl=0
char id=7874  x=533  y=2    width=38   height=61   xoffset=0    yoffset=-6   xadvance=33   page=0    chnl=0
char id=7875  x=140  y=183  width=40   height=52   xoffset=1    yoffset=3    xadvance=35   page=0    chnl=0
char id=7876  x=395  y=2    width=38   height=62   xoffset=0    yoffset=-7   xadvance=33   page=0    chnl=0
char id=7877  x=420  y=126  width=40   height=54   xoffset=1    yoffset=1    xadvance=35   page=0    chnl=0
char id=7878  x=104  y=2    width=38   height=63   xoffset=0    yoffset=0    xadvance=33   page=0    chnl=0
char id=7879  x=378  y=126  width=40   height=54   xoffset=1    yoffset=8    xadvance=35   page=0    chnl=0
char id=7880  x=996  y=2    width=19   height=54   xoffset=2    yoffset=1    xadvance=17   page=0    chnl=0
char id=7881  x=899  y=388  width=18   height=44   xoffset=2    yoffset=10   xadvance=16   page=0    chnl=0
char id=7882  x=852  y=183  width=19   height=51   xoffset=2    yoffset=11   xadvance=17   page=0    chnl=0
char id=7883  x=182  y=183  width=18   height=52   xoffset=2    yoffset=10   xadvance=16   page=0    chnl=0
char id=7884  x=327  y=67   width=45   height=56   xoffset=1    yoffset=8    xadvance=41   page=0    chnl=0
char id=7885  x=771  y=339  width=40   height=46   xoffset=1    yoffset=16   xadvance=36   page=0    chnl=0
char id=7886  x=0    y=67   width=45   height=57   xoffset=1    yoffset=-1   xadvance=41   page=0    chnl=0
char id=7887  x=901  y=238  width=40   height=48   xoffset=1    yoffset=7    xadvance=36   page=0    chnl=0
char id=7888  x=752  y=2    width=45   height=60   xoffset=1    yoffset=-4   xadvance=41   page=0    chnl=0
char id=7889  x=810  y=183  width=40   height=51   xoffset=1    yoffset=4    xadvance=36   page=0    chnl=0
char id=7890  x=799  y=2    width=45   height=60   xoffset=1    yoffset=-4   xadvance=41   page=0    chnl=0
char id=7891  x=684  y=183  width=40   height=51   xoffset=1    yoffset=4    xadvance=36   page=0    chnl=0
char id=7892  x=573  y=2    width=45   height=61   xoffset=1    yoffset=-5   xadvance=41   page=0    chnl=0
char id=7893  x=522  y=183  width=40   height=52   xoffset=1    yoffset=3    xadvance=36   page=0    chnl=0
char id=7894  x=435  y=2    width=45   height=62   xoffset=1    yoffset=-6   xadvance=41   page=0    chnl=0
char id=7895  x=725  y=126  width=40   height=53   xoffset=1    yoffset=2    xadvance=36   page=0    chnl=0
char id=7896  x=144  y=2    width=45   height=63   xoffset=1    yoffset=1    xadvance=41   page=0    chnl=0
char id=7897  x=502  y=126  width=40   height=54   xoffset=1    yoffset=8    xadvance=36   page=0    chnl=0
char id=7898  x=374  y=67   width=46   height=56   xoffset=1    yoffset=0    xadvance=41   page=0    chnl=0
char id=7899  x=400  y=339  width=41   height=47   xoffset=1    yoffset=8    xadvance=36   page=0    chnl=0
char id=7900  x=422  y=67   width=46   height=56   xoffset=1    yoffset=0    xadvance=41   page=0    chnl=0
char id=7901  x=190  y=289  width=41   height=47   xoffset=1    yoffset=8    xadvance=36   page=0    chnl=0
char id=7902  x=47   y=67   width=46   height=57   xoffset=1    yoffset=-1   xadvance=41   page=0    chnl=0
char id=7903  x=494  y=238  width=41   height=48   xoffset=1    yoffset=7    xadvance=36   page=0    chnl=0
char id=7904  x=470  y=67   width=46   height=56   xoffset=1    yoffset=0    xadvance=41   page=0    chnl=0
char id=7905  x=437  y=289  width=41   height=47   xoffset=1    yoffset=8    xadvance=36   page=0    chnl=0
char id=7906  x=948  y=2    width=46   height=58   xoffset=1    yoffset=6    xadvance=41   page=0    chnl=0
char id=7907  x=286  y=238  width=41   height=49   xoffset=1    yoffset=13   xadvance=36   page=0    chnl=0
char id=7908  x=334  y=183  width=42   height=52   xoffset=1    yoffset=10   xadvance=39   page=0    chnl=0
char id=7909  x=457  y=388  width=39   height=45   xoffset=1    yoffset=17   xadvance=35   page=0    chnl=0
char id=7910  x=848  y=126  width=42   height=53   xoffset=1    yoffset=1    xadvance=39   page=0    chnl=0
char id=7911  x=353  y=289  width=39   height=47   xoffset=1    yoffset=7    xadvance=35   page=0    chnl=0
char id=7912  x=378  y=183  width=46   height=52   xoffset=1    yoffset=2    xadvance=39   page=0    chnl=0
char id=7913  x=412  y=388  width=43   height=45   xoffset=1    yoffset=9    xadvance=36   page=0    chnl=0
char id=7914  x=426  y=183  width=46   height=52   xoffset=1    yoffset=2    xadvance=39   page=0    chnl=0
char id=7915  x=367  y=388  width=43   height=45   xoffset=1    yoffset=9    xadvance=36   page=0    chnl=0
char id=7916  x=892  y=126  width=46   height=53   xoffset=1    yoffset=1    xadvance=39   page=0    chnl=0
char id=7917  x=903  y=289  width=43   height=47   xoffset=1    yoffset=7    xadvance=36   page=0    chnl=0
char id=7918  x=474  y=183  width=46   height=52   xoffset=1    yoffset=2    xadvance=39   page=0    chnl=0
char id=7919  x=919  y=388  width=43   height=44   xoffset=1    yoffset=10   xadvance=36   page=0    chnl=0
char id=7920  x=518  y=67   width=46   height=56   xoffset=1    yoffset=6    xadvance=39   page=0    chnl=0
char id=7921  x=201  y=238  width=43   height=49   xoffset=1    yoffset=13   xadvance=36   page=0    chnl=0
char id=7922  x=591  y=126  width=45   height=54   xoffset=0    yoffset=0    xadvance=39   page=0    chnl=0
char id=7923  x=649  y=339  width=41   height=46   xoffset=0    yoffset=8    xadvance=35   page=0    chnl=0
char id=7924  x=47   y=183  width=45   height=53   xoffset=0    yoffset=9    xadvance=39   page=0    chnl=0
char id=7925  x=86   y=388  width=41   height=46   xoffset=0    yoffset=16   xadvance=35   page=0    chnl=0
char id=7926  x=638  y=126  width=45   height=54   xoffset=0    yoffset=0    xadvance=39   page=0    chnl=0
char id=7927  x=48   y=289  width=41   height=48   xoffset=0    yoffset=6    xadvance=35   page=0    chnl=0
char id=7928  x=0    y=183  width=45   height=53   xoffset=0    yoffset=1    xadvance=39   page=0    chnl=0
char id=7929  x=692  y=339  width=41   height=46   xoffset=0    yoffset=8    xadvance=35   page=0    chnl=0
kernings count=0
