{
  "idLv": 108,
  "bottles": [
    {
      "balls": [
        4,
        2,
        1,
        1
      ]
    },
    {
      "balls": [
        7,
        0,
        5,
        7
      ]
    },
    {
      "balls": [
        3,
        8,
        0,
        9
      ]
    },
    {
      "balls": [
        6,
        9,
        3,
        0
      ]
    },
    {
      "balls": [
        2,
        9,
        10,
        4
      ]
    },
    {
      "balls": [
        5,
        10,
        10,
        2
      ]
    },
    {
      "balls": [
        7,
        8,
        3,
        2
      ]
    },
    {
      "balls": [
        4,
        6,
        3,
        1
      ]
    },
    {
      "balls": [
        8,
        7,
        1,
        6
      ]
    },
    {
      "balls": [
        5,
        10,
        9,
        8
      ]
    },
    {
      "balls": [
        0,
        6,
        5,
        4
      ]
    },
    {
      "balls": []
    },
    {
      "balls": []
    }
  ]
}