{
  "idLv": 102,
  "bottles": [
    {
      "balls": [
        4,
        0,
        5,
        6
      ]
    },
    {
      "balls": [
        8,
        2,
        6,
        3
      ]
    },
    {
      "balls": [
        8,
        4,
        1,
        7
      ]
    },
    {
      "balls": [
        1,
        4,
        2,
        1
      ]
    },
    {
      "balls": [
        2,
        8,
        6,
        4
      ]
    },
    {
      "balls": [
        3,
        2,
        5,
        1
      ]
    },
    {
      "balls": [
        7,
        7,
        0,
        7
      ]
    },
    {
      "balls": [
        5,
        0,
        3,
        6
      ]
    },
    {
      "balls": [
        5,
        0,
        8,
        3
      ]
    },
    {
      "balls": []
    },
    {
      "balls": []
    }
  ]
}