{
  "idLv": 101,
  "bottles": [
    {
      "balls": [
        1,
        3,
        0,
        5
      ]
    },
    {
      "balls": [
        2,
        4,
        0,
        5
      ]
    },
    {
      "balls": [
        3,
        4,
        2,
        6
      ]
    },
    {
      "balls": [
        2,
        0,
        4,
        3
      ]
    },
    {
      "balls": [
        6,
        6,
        6,
        1
      ]
    },
    {
      "balls": [
        5,
        2,
        1,
        0
      ]
    },
    {
      "balls": [
        5,
        4,
        3,
        1
      ]
    },
    {
      "balls": []
    },
    {
      "balls": []
    }
  ]
}