{
  "idLv": 107,
  "bottles": [
    {
      "balls": [
        3,
        0,
        5,
        0
      ]
    },
    {
      "balls": [
        6,
        5,
        2,
        9
      ]
    },
    {
      "balls": [
        4,
        8,
        7,
        3
      ]
    },
    {
      "balls": [
        6,
        5,
        2,
        9
      ]
    },
    {
      "balls": [
        8,
        1,
        3,
        4
      ]
    },
    {
      "balls": [
        0,
        7,
        2,
        7
      ]
    },
    {
      "balls": [
        1,
        6,
        10,
        7
      ]
    },
    {
      "balls": [
        3,
        9,
        1,
        4
      ]
    },
    {
      "balls": [
        5,
        8,
        8,
        10
      ]
    },
    {
      "balls": [
        10,
        6,
        0,
        9
      ]
    },
    {
      "balls": [
        2,
        1,
        4,
        10
      ]
    },
    {
      "balls": []
    },
    {
      "balls": []
    }
  ]
}