{
  "idLv": 106,
  "bottles": [
    {
      "balls": [
        7,
        8,
        0,
        7
      ]
    },
    {
      "balls": [
        5,
        2,
        0,
        4
      ]
    },
    {
      "balls": [
        0,
        5,
        1,
        1
      ]
    },
    {
      "balls": [
        3,
        4,
        1,
        7
      ]
    },
    {
      "balls": [
        5,
        8,
        2,
        4
      ]
    },
    {
      "balls": [
        2,
        8,
        4,
        0
      ]
    },
    {
      "balls": [
        7,
        3,
        5,
        1
      ]
    },
    {
      "balls": [
        6,
        3,
        6,
        3
      ]
    },
    {
      "balls": [
        6,
        6,
        2,
        8
      ]
    },
    {
      "balls": []
    },
    {
      "balls": []
    }
  ]
}