{
  "idLv": 103,
  "bottles": [
    {
      "balls": [
        5,
        3,
        4,
        3
      ]
    },
    {
      "balls": [
        0,
        7,
        6,
        3
      ]
    },
    {
      "balls": [
        4,
        1,
        8,
        0
      ]
    },
    {
      "balls": [
        1,
        6,
        5,
        0
      ]
    },
    {
      "balls": [
        7,
        1,
        3,
        6
      ]
    },
    {
      "balls": [
        1,
        4,
        7,
        4
      ]
    },
    {
      "balls": [
        5,
        2,
        6,
        2
      ]
    },
    {
      "balls": [
        2,
        8,
        7,
        8
      ]
    },
    {
      "balls": [
        5,
        2,
        8,
        0
      ]
    },
    {
      "balls": []
    },
    {
      "balls": []
    }
  ]
}