{
  "idLv": 116,
  "bottles": [
    {
      "balls": [
        1,
        8,
        9,
        4
      ]
    },
    {
      "balls": [
        5,
        3,
        6,
        2
      ]
    },
    {
      "balls": [
        0,
        7,
        10,
        4
      ]
    },
    {
      "balls": [
        8,
        3,
        1,
        10
      ]
    },
    {
      "balls": [
        3,
        9,
        6,
        8
      ]
    },
    {
      "balls": [
        2,
        9,
        7,
        5
      ]
    },
    {
      "balls": [
        6,
        0,
        0,
        5
      ]
    },
    {
      "balls": [
        1,
        4,
        7,
        9
      ]
    },
    {
      "balls": [
        10,
        8,
        2,
        6
      ]
    },
    {
      "balls": [
        3,
        10,
        4,
        7
      ]
    },
    {
      "balls": [
        0,
        1,
        5,
        2
      ]
    },
    {
      "balls": []
    },
    {
      "balls": []
    }
  ]
}