{
  "idLv": 118,
  "bottles": [
    {
      "balls": [
        7,
        2,
        6,
        3
      ]
    },
    {
      "balls": [
        0,
        1,
        4,
        5
      ]
    },
    {
      "balls": [
        8,
        8,
        4,
        2
      ]
    },
    {
      "balls": [
        2,
        7,
        8,
        5
      ]
    },
    {
      "balls": [
        5,
        1,
        0,
        1
      ]
    },
    {
      "balls": [
        4,
        1,
        7,
        8
      ]
    },
    {
      "balls": [
        6,
        5,
        3,
        3
      ]
    },
    {
      "balls": [
        7,
        2,
        3,
        0
      ]
    },
    {
      "balls": [
        4,
        0,
        6,
        6
      ]
    },
    {
      "balls": []
    },
    {
      "balls": []
    }
  ]
}