{
  "idLv": 110,
  "bottles": [
    {
      "balls": [
        0,
        1,
        0,
        8
      ]
    },
    {
      "balls": [
        1,
        4,
        8,
        4
      ]
    },
    {
      "balls": [
        8,
        7,
        6,
        9
      ]
    },
    {
      "balls": [
        7,
        6,
        9,
        2
      ]
    },
    {
      "balls": [
        1,
        2,
        3,
        10
      ]
    },
    {
      "balls": [
        0,
        5,
        10,
        9
      ]
    },
    {
      "balls": [
        7,
        5,
        7,
        2
      ]
    },
    {
      "balls": [
        1,
        5,
        6,
        3
      ]
    },
    {
      "balls": [
        3,
        4,
        8,
        6
      ]
    },
    {
      "balls": [
        0,
        9,
        2,
        4
      ]
    },
    {
      "balls": [
        5,
        10,
        10,
        3
      ]
    },
    {
      "balls": []
    },
    {
      "balls": []
    }
  ]
}