{
  "idLv": 112,
  "bottles": [
    {
      "balls": [
        3,
        2,
        4,
        3
      ]
    },
    {
      "balls": [
        5,
        1,
        2,
        8
      ]
    },
    {
      "balls": [
        8,
        6,
        5,
        3
      ]
    },
    {
      "balls": [
        8,
        7,
        8,
        6
      ]
    },
    {
      "balls": [
        0,
        4,
        0,
        2
      ]
    },
    {
      "balls": [
        7,
        6,
        5,
        3
      ]
    },
    {
      "balls": [
        7,
        7,
        4,
        2
      ]
    },
    {
      "balls": [
        0,
        1,
        4,
        6
      ]
    },
    {
      "balls": [
        5,
        1,
        1,
        0
      ]
    },
    {
      "balls": []
    },
    {
      "balls": []
    }
  ]
}