{
  "idLv": 115,
  "bottles": [
    {
      "balls": [
        4,
        0,
        1,
        0
      ]
    },
    {
      "balls": [
        7,
        2,
        5,
        8
      ]
    },
    {
      "balls": [
        6,
        3,
        3,
        6
      ]
    },
    {
      "balls": [
        7,
        0,
        2,
        3
      ]
    },
    {
      "balls": [
        7,
        8,
        8,
        8
      ]
    },
    {
      "balls": [
        5,
        4,
        3,
        4
      ]
    },
    {
      "balls": [
        7,
        5,
        5,
        1
      ]
    },
    {
      "balls": [
        6,
        0,
        6,
        1
      ]
    },
    {
      "balls": [
        1,
        2,
        4,
        2
      ]
    },
    {
      "balls": []
    },
    {
      "balls": []
    }
  ]
}