{
  "idLv": 126,
  "bottles": [
    {
      "balls": [
        5,
        7,
        7,
        6
      ]
    },
    {
      "balls": [
        0,
        2,
        2,
        5
      ]
    },
    {
      "balls": [
        0,
        8,
        10,
        8
      ]
    },
    {
      "balls": [
        4,
        3,
        0,
        3
      ]
    },
    {
      "balls": [
        0,
        6,
        10,
        4
      ]
    },
    {
      "balls": [
        7,
        1,
        9,
        9
      ]
    },
    {
      "balls": [
        6,
        1,
        5,
        3
      ]
    },
    {
      "balls": [
        6,
        4,
        3,
        9
      ]
    },
    {
      "balls": [
        7,
        8,
        10,
        10
      ]
    },
    {
      "balls": [
        5,
        2,
        8,
        4
      ]
    },
    {
      "balls": [
        1,
        9,
        2,
        1
      ]
    },
    {
      "balls": []
    },
    {
      "balls": []
    }
  ]
}