{
  "idLv": 120,
  "bottles": [
    {
      "balls": [
        9,
        2,
        7,
        5
      ]
    },
    {
      "balls": [
        9,
        3,
        10,
        7
      ]
    },
    {
      "balls": [
        2,
        0,
        1,
        9
      ]
    },
    {
      "balls": [
        1,
        0,
        5,
        7
      ]
    },
    {
      "balls": [
        4,
        9,
        8,
        7
      ]
    },
    {
      "balls": [
        6,
        0,
        1,
        10
      ]
    },
    {
      "balls": [
        4,
        4,
        10,
        1
      ]
    },
    {
      "balls": [
        3,
        8,
        2,
        0
      ]
    },
    {
      "balls": [
        6,
        8,
        6,
        8
      ]
    },
    {
      "balls": [
        3,
        5,
        5,
        6
      ]
    },
    {
      "balls": [
        3,
        10,
        2,
        4
      ]
    },
    {
      "balls": []
    },
    {
      "balls": []
    }
  ]
}