{
  "idLv": 133,
  "bottles": [
    {
      "balls": [
        6,
        4,
        7,
        3
      ]
    },
    {
      "balls": [
        8,
        5,
        8,
        3
      ]
    },
    {
      "balls": [
        3,
        1,
        2,
        6
      ]
    },
    {
      "balls": [
        8,
        1,
        2,
        0
      ]
    },
    {
      "balls": [
        1,
        0,
        7,
        3
      ]
    },
    {
      "balls": [
        4,
        5,
        2,
        5
      ]
    },
    {
      "balls": [
        4,
        2,
        7,
        0
      ]
    },
    {
      "balls": [
        1,
        6,
        5,
        4
      ]
    },
    {
      "balls": [
        7,
        8,
        6,
        0
      ]
    },
    {
      "balls": []
    },
    {
      "balls": []
    }
  ]
}