{
  "idLv": 134,
  "bottles": [
    {
      "balls": [
        8,
        0,
        0,
        1
      ]
    },
    {
      "balls": [
        9,
        10,
        3,
        7
      ]
    },
    {
      "balls": [
        9,
        3,
        0,
        5
      ]
    },
    {
      "balls": [
        6,
        7,
        2,
        4
      ]
    },
    {
      "balls": [
        7,
        8,
        5,
        4
      ]
    },
    {
      "balls": [
        1,
        4,
        8,
        9
      ]
    },
    {
      "balls": [
        0,
        6,
        2,
        6
      ]
    },
    {
      "balls": [
        10,
        6,
        4,
        3
      ]
    },
    {
      "balls": [
        8,
        2,
        10,
        1
      ]
    },
    {
      "balls": [
        7,
        3,
        1,
        5
      ]
    },
    {
      "balls": [
        5,
        2,
        9,
        10
      ]
    },
    {
      "balls": []
    },
    {
      "balls": []
    }
  ]
}