{
  "idLv": 147,
  "bottles": [
    {
      "balls": [
        2,
        9,
        8,
        0
      ]
    },
    {
      "balls": [
        6,
        1,
        4,
        5
      ]
    },
    {
      "balls": [
        1,
        3,
        4,
        0
      ]
    },
    {
      "balls": [
        8,
        4,
        3,
        9
      ]
    },
    {
      "balls": [
        7,
        7,
        10,
        4
      ]
    },
    {
      "balls": [
        0,
        10,
        5,
        2
      ]
    },
    {
      "balls": [
        3,
        9,
        3,
        10
      ]
    },
    {
      "balls": [
        7,
        2,
        6,
        1
      ]
    },
    {
      "balls": [
        5,
        1,
        0,
        5
      ]
    },
    {
      "balls": [
        2,
        6,
        10,
        7
      ]
    },
    {
      "balls": [
        6,
        8,
        8,
        9
      ]
    },
    {
      "balls": []
    },
    {
      "balls": []
    }
  ]
}