{
  "idLv": 146,
  "bottles": [
    {
      "balls": [
        2,
        0,
        2,
        5
      ]
    },
    {
      "balls": [
        7,
        5,
        10,
        8
      ]
    },
    {
      "balls": [
        1,
        7,
        5,
        3
      ]
    },
    {
      "balls": [
        5,
        4,
        3,
        6
      ]
    },
    {
      "balls": [
        9,
        6,
        1,
        2
      ]
    },
    {
      "balls": [
        9,
        10,
        9,
        10
      ]
    },
    {
      "balls": [
        2,
        3,
        0,
        4
      ]
    },
    {
      "balls": [
        9,
        1,
        1,
        6
      ]
    },
    {
      "balls": [
        0,
        8,
        4,
        8
      ]
    },
    {
      "balls": [
        7,
        3,
        7,
        6
      ]
    },
    {
      "balls": [
        8,
        10,
        0,
        4
      ]
    },
    {
      "balls": []
    },
    {
      "balls": []
    }
  ]
}