{
  "idLv": 159,
  "bottles": [
    {
      "balls": [
        5,
        4,
        0,
        0
      ]
    },
    {
      "balls": [
        10,
        2,
        7,
        1
      ]
    },
    {
      "balls": [
        9,
        6,
        1,
        8
      ]
    },
    {
      "balls": [
        3,
        7,
        9,
        10
      ]
    },
    {
      "balls": [
        1,
        2,
        7,
        6
      ]
    },
    {
      "balls": [
        2,
        5,
        10,
        6
      ]
    },
    {
      "balls": [
        0,
        3,
        8,
        9
      ]
    },
    {
      "balls": [
        8,
        7,
        4,
        4
      ]
    },
    {
      "balls": [
        0,
        3,
        4,
        5
      ]
    },
    {
      "balls": [
        2,
        10,
        8,
        3
      ]
    },
    {
      "balls": [
        9,
        1,
        6,
        5
      ]
    },
    {
      "balls": []
    },
    {
      "balls": []
    }
  ]
}