{
  "idLv": 171,
  "bottles": [
    {
      "balls": [
        3,
        9,
        5,
        0
      ]
    },
    {
      "balls": [
        10,
        3,
        9,
        4
      ]
    },
    {
      "balls": [
        8,
        2,
        10,
        2
      ]
    },
    {
      "balls": [
        4,
        10,
        7,
        7
      ]
    },
    {
      "balls": [
        4,
        1,
        8,
        9
      ]
    },
    {
      "balls": [
        0,
        6,
        1,
        5
      ]
    },
    {
      "balls": [
        3,
        1,
        8,
        1
      ]
    },
    {
      "balls": [
        0,
        7,
        2,
        5
      ]
    },
    {
      "balls": [
        5,
        8,
        6,
        2
      ]
    },
    {
      "balls": [
        6,
        9,
        0,
        3
      ]
    },
    {
      "balls": [
        7,
        4,
        6,
        10
      ]
    },
    {
      "balls": []
    },
    {
      "balls": []
    }
  ]
}