{
  "idLv": 177,
  "bottles": [
    {
      "balls": [
        3,
        7,
        3,
        6
      ]
    },
    {
      "balls": [
        1,
        2,
        10,
        5
      ]
    },
    {
      "balls": [
        5,
        1,
        4,
        10
      ]
    },
    {
      "balls": [
        1,
        0,
        0,
        3
      ]
    },
    {
      "balls": [
        4,
        9,
        8,
        6
      ]
    },
    {
      "balls": [
        10,
        7,
        6,
        5
      ]
    },
    {
      "balls": [
        7,
        4,
        9,
        6
      ]
    },
    {
      "balls": [
        8,
        10,
        5,
        4
      ]
    },
    {
      "balls": [
        2,
        2,
        8,
        9
      ]
    },
    {
      "balls": [
        3,
        7,
        2,
        0
      ]
    },
    {
      "balls": [
        0,
        8,
        1,
        9
      ]
    },
    {
      "balls": []
    },
    {
      "balls": []
    }
  ]
}