{
  "idLv": 172,
  "bottles": [
    {
      "balls": [
        6,
        1,
        5,
        1
      ]
    },
    {
      "balls": [
        6,
        7,
        0,
        8
      ]
    },
    {
      "balls": [
        7,
        6,
        8,
        0
      ]
    },
    {
      "balls": [
        2,
        3,
        3,
        8
      ]
    },
    {
      "balls": [
        3,
        2,
        5,
        1
      ]
    },
    {
      "balls": [
        0,
        6,
        5,
        1
      ]
    },
    {
      "balls": [
        4,
        0,
        4,
        8
      ]
    },
    {
      "balls": [
        4,
        2,
        5,
        4
      ]
    },
    {
      "balls": [
        7,
        3,
        7,
        2
      ]
    },
    {
      "balls": []
    },
    {
      "balls": []
    }
  ]
}