{
  "idLv": 173,
  "bottles": [
    {
      "balls": [
        8,
        5,
        2,
        5
      ]
    },
    {
      "balls": [
        2,
        3,
        1,
        9
      ]
    },
    {
      "balls": [
        9,
        10,
        0,
        8
      ]
    },
    {
      "balls": [
        2,
        4,
        7,
        8
      ]
    },
    {
      "balls": [
        5,
        4,
        10,
        9
      ]
    },
    {
      "balls": [
        8,
        1,
        10,
        3
      ]
    },
    {
      "balls": [
        6,
        3,
        6,
        0
      ]
    },
    {
      "balls": [
        7,
        6,
        4,
        2
      ]
    },
    {
      "balls": [
        1,
        1,
        6,
        0
      ]
    },
    {
      "balls": [
        3,
        5,
        9,
        7
      ]
    },
    {
      "balls": [
        7,
        4,
        10,
        0
      ]
    },
    {
      "balls": []
    },
    {
      "balls": []
    }
  ]
}