{
  "idLv": 178,
  "bottles": [
    {
      "balls": [
        7,
        4,
        8,
        4
      ]
    },
    {
      "balls": [
        4,
        6,
        0,
        7
      ]
    },
    {
      "balls": [
        8,
        2,
        3,
        5
      ]
    },
    {
      "balls": [
        3,
        6,
        1,
        7
      ]
    },
    {
      "balls": [
        2,
        6,
        0,
        5
      ]
    },
    {
      "balls": [
        8,
        1,
        5,
        5
      ]
    },
    {
      "balls": [
        1,
        3,
        7,
        3
      ]
    },
    {
      "balls": [
        2,
        4,
        2,
        0
      ]
    },
    {
      "balls": [
        8,
        0,
        6,
        1
      ]
    },
    {
      "balls": []
    },
    {
      "balls": []
    }
  ]
}