{
  "idLv": 183,
  "bottles": [
    {
      "balls": [
        5,
        8,
        2,
        2
      ]
    },
    {
      "balls": [
        2,
        0,
        10,
        0
      ]
    },
    {
      "balls": [
        4,
        6,
        1,
        7
      ]
    },
    {
      "balls": [
        7,
        10,
        1,
        4
      ]
    },
    {
      "balls": [
        8,
        0,
        6,
        3
      ]
    },
    {
      "balls": [
        8,
        4,
        5,
        10
      ]
    },
    {
      "balls": [
        3,
        1,
        10,
        6
      ]
    },
    {
      "balls": [
        9,
        2,
        5,
        9
      ]
    },
    {
      "balls": [
        0,
        5,
        9,
        1
      ]
    },
    {
      "balls": [
        8,
        4,
        7,
        3
      ]
    },
    {
      "balls": [
        6,
        7,
        3,
        9
      ]
    },
    {
      "balls": []
    },
    {
      "balls": []
    }
  ]
}