{
  "idLv": 184,
  "bottles": [
    {
      "balls": [
        2,
        6,
        0,
        1
      ]
    },
    {
      "balls": [
        4,
        0,
        6,
        3
      ]
    },
    {
      "balls": [
        7,
        8,
        4,
        5
      ]
    },
    {
      "balls": [
        8,
        3,
        5,
        1
      ]
    },
    {
      "balls": [
        2,
        6,
        4,
        7
      ]
    },
    {
      "balls": [
        4,
        5,
        8,
        3
      ]
    },
    {
      "balls": [
        2,
        6,
        3,
        1
      ]
    },
    {
      "balls": [
        0,
        8,
        2,
        5
      ]
    },
    {
      "balls": [
        1,
        7,
        0,
        7
      ]
    },
    {
      "balls": []
    },
    {
      "balls": []
    }
  ]
}