{
  "idLv": 19,
  "bottles": [
    {
      "balls": [
        5,
        6,
        4,
        6
      ]
    },
    {
      "balls": [
        5,
        1,
        6,
        2
      ]
    },
    {
      "balls": [
        2,
        6,
        4,
        5
      ]
    },
    {
      "balls": [
        3,
        2,
        0,
        0
      ]
    },
    {
      "balls": [
        3,
        3,
        2,
        1
      ]
    },
    {
      "balls": [
        4,
        1,
        1,
        4
      ]
    },
    {
      "balls": [
        0,
        0,
        5,
        3
      ]
    },
    {
      "balls": []
    },
    {
      "balls": []
    }
  ]
}