{
  "idLv": 194,
  "bottles": [
    {
      "balls": [
        4,
        4,
        10,
        4
      ]
    },
    {
      "balls": [
        10,
        0,
        1,
        4
      ]
    },
    {
      "balls": [
        6,
        2,
        3,
        7
      ]
    },
    {
      "balls": [
        9,
        3,
        8,
        7
      ]
    },
    {
      "balls": [
        3,
        7,
        0,
        3
      ]
    },
    {
      "balls": [
        0,
        5,
        6,
        2
      ]
    },
    {
      "balls": [
        10,
        8,
        9,
        2
      ]
    },
    {
      "balls": [
        0,
        1,
        6,
        7
      ]
    },
    {
      "balls": [
        8,
        6,
        9,
        5
      ]
    },
    {
      "balls": [
        5,
        8,
        2,
        10
      ]
    },
    {
      "balls": [
        9,
        5,
        1,
        1
      ]
    },
    {
      "balls": []
    },
    {
      "balls": []
    }
  ]
}