{
  "idLv": 193,
  "bottles": [
    {
      "balls": [
        0,
        1,
        8,
        2
      ]
    },
    {
      "balls": [
        8,
        0,
        6,
        6
      ]
    },
    {
      "balls": [
        1,
        6,
        7,
        0
      ]
    },
    {
      "balls": [
        1,
        1,
        6,
        2
      ]
    },
    {
      "balls": [
        3,
        5,
        5,
        4
      ]
    },
    {
      "balls": [
        7,
        7,
        3,
        8
      ]
    },
    {
      "balls": [
        8,
        4,
        4,
        5
      ]
    },
    {
      "balls": [
        2,
        4,
        0,
        3
      ]
    },
    {
      "balls": [
        3,
        7,
        5,
        2
      ]
    },
    {
      "balls": []
    },
    {
      "balls": []
    }
  ]
}