{
  "idLv": 2,
  "bottles": [
    {
      "balls": [
        0,
        1,
        0,
        1
      ]
    },
    {
      "balls": [
        1,
        0,
        1,
        0
      ]
    },
    {
      "balls": []
    }
  ]
}