{
  "idLv": 209,
  "bottles": [
    {
      "balls": [
        10,
        1,
        9,
        5
      ]
    },
    {
      "balls": [
        9,
        7,
        7,
        1
      ]
    },
    {
      "balls": [
        5,
        2,
        5,
        6
      ]
    },
    {
      "balls": [
        10,
        11,
        8,
        0
      ]
    },
    {
      "balls": [
        1,
        6,
        7,
        8
      ]
    },
    {
      "balls": [
        9,
        10,
        3,
        6
      ]
    },
    {
      "balls": [
        4,
        6,
        3,
        5
      ]
    },
    {
      "balls": [
        11,
        2,
        7,
        2
      ]
    },
    {
      "balls": [
        8,
        3,
        8,
        0
      ]
    },
    {
      "balls": [
        4,
        11,
        3,
        0
      ]
    },
    {
      "balls": [
        10,
        4,
        9,
        1
      ]
    },
    {
      "balls": [
        4,
        11,
        2,
        0
      ]
    },
    {
      "balls": []
    },
    {
      "balls": []
    }
  ]
}