{
  "idLv": 205,
  "bottles": [
    {
      "balls": [
        9,
        10,
        9,
        6
      ]
    },
    {
      "balls": [
        11,
        4,
        3,
        0
      ]
    },
    {
      "balls": [
        4,
        1,
        3,
        1
      ]
    },
    {
      "balls": [
        1,
        6,
        0,
        4
      ]
    },
    {
      "balls": [
        5,
        5,
        3,
        10
      ]
    },
    {
      "balls": [
        10,
        7,
        2,
        7
      ]
    },
    {
      "balls": [
        9,
        8,
        0,
        8
      ]
    },
    {
      "balls": [
        1,
        7,
        4,
        6
      ]
    },
    {
      "balls": [
        5,
        0,
        11,
        5
      ]
    },
    {
      "balls": [
        8,
        11,
        8,
        3
      ]
    },
    {
      "balls": [
        2,
        2,
        7,
        2
      ]
    },
    {
      "balls": [
        11,
        6,
        10,
        9
      ]
    },
    {
      "balls": []
    },
    {
      "balls": []
    }
  ]
}