{
  "idLv": 211,
  "bottles": [
    {
      "balls": [
        0,
        11,
        0,
        7
      ]
    },
    {
      "balls": [
        3,
        6,
        8,
        2
      ]
    },
    {
      "balls": [
        8,
        9,
        5,
        4
      ]
    },
    {
      "balls": [
        4,
        3,
        1,
        0
      ]
    },
    {
      "balls": [
        1,
        7,
        11,
        4
      ]
    },
    {
      "balls": [
        8,
        2,
        9,
        9
      ]
    },
    {
      "balls": [
        3,
        1,
        6,
        11
      ]
    },
    {
      "balls": [
        3,
        10,
        5,
        5
      ]
    },
    {
      "balls": [
        10,
        1,
        11,
        0
      ]
    },
    {
      "balls": [
        10,
        4,
        6,
        7
      ]
    },
    {
      "balls": [
        10,
        2,
        6,
        5
      ]
    },
    {
      "balls": [
        2,
        9,
        7,
        8
      ]
    },
    {
      "balls": []
    },
    {
      "balls": []
    }
  ]
}