{
  "idLv": 223,
  "bottles": [
    {
      "balls": [
        2,
        7,
        2,
        5
      ]
    },
    {
      "balls": [
        8,
        0,
        7,
        5
      ]
    },
    {
      "balls": [
        0,
        9,
        6,
        10
      ]
    },
    {
      "balls": [
        11,
        11,
        10,
        6
      ]
    },
    {
      "balls": [
        3,
        4,
        2,
        1
      ]
    },
    {
      "balls": [
        5,
        4,
        6,
        10
      ]
    },
    {
      "balls": [
        3,
        3,
        7,
        11
      ]
    },
    {
      "balls": [
        5,
        0,
        1,
        4
      ]
    },
    {
      "balls": [
        8,
        3,
        0,
        11
      ]
    },
    {
      "balls": [
        6,
        8,
        1,
        1
      ]
    },
    {
      "balls": [
        10,
        9,
        8,
        9
      ]
    },
    {
      "balls": [
        4,
        2,
        9,
        7
      ]
    },
    {
      "balls": []
    },
    {
      "balls": []
    }
  ]
}