{
  "idLv": 233,
  "bottles": [
    {
      "balls": [
        7,
        3,
        0,
        7
      ]
    },
    {
      "balls": [
        6,
        11,
        2,
        10
      ]
    },
    {
      "balls": [
        1,
        4,
        4,
        9
      ]
    },
    {
      "balls": [
        1,
        1,
        10,
        2
      ]
    },
    {
      "balls": [
        11,
        9,
        8,
        0
      ]
    },
    {
      "balls": [
        7,
        0,
        5,
        11
      ]
    },
    {
      "balls": [
        9,
        9,
        3,
        2
      ]
    },
    {
      "balls": [
        6,
        11,
        5,
        8
      ]
    },
    {
      "balls": [
        3,
        6,
        4,
        5
      ]
    },
    {
      "balls": [
        8,
        2,
        7,
        10
      ]
    },
    {
      "balls": [
        4,
        0,
        10,
        8
      ]
    },
    {
      "balls": [
        1,
        3,
        6,
        5
      ]
    },
    {
      "balls": []
    },
    {
      "balls": []
    }
  ]
}