{
  "idLv": 232,
  "bottles": [
    {
      "balls": [
        7,
        2,
        8,
        2
      ]
    },
    {
      "balls": [
        1,
        2,
        4,
        5
      ]
    },
    {
      "balls": [
        4,
        6,
        8,
        0
      ]
    },
    {
      "balls": [
        7,
        8,
        0,
        6
      ]
    },
    {
      "balls": [
        4,
        3,
        3,
        3
      ]
    },
    {
      "balls": [
        7,
        0,
        5,
        2
      ]
    },
    {
      "balls": [
        4,
        6,
        0,
        1
      ]
    },
    {
      "balls": [
        8,
        5,
        6,
        3
      ]
    },
    {
      "balls": [
        1,
        1,
        7,
        5
      ]
    },
    {
      "balls": []
    },
    {
      "balls": []
    }
  ]
}