{
  "idLv": 245,
  "bottles": [
    {
      "balls": [
        10,
        9,
        7,
        1
      ]
    },
    {
      "balls": [
        4,
        8,
        0,
        6
      ]
    },
    {
      "balls": [
        9,
        7,
        9,
        3
      ]
    },
    {
      "balls": [
        10,
        1,
        8,
        9
      ]
    },
    {
      "balls": [
        11,
        11,
        0,
        11
      ]
    },
    {
      "balls": [
        4,
        6,
        4,
        5
      ]
    },
    {
      "balls": [
        2,
        3,
        2,
        5
      ]
    },
    {
      "balls": [
        2,
        0,
        0,
        1
      ]
    },
    {
      "balls": [
        7,
        6,
        8,
        10
      ]
    },
    {
      "balls": [
        3,
        8,
        7,
        3
      ]
    },
    {
      "balls": [
        11,
        2,
        5,
        6
      ]
    },
    {
      "balls": [
        4,
        10,
        1,
        5
      ]
    },
    {
      "balls": []
    },
    {
      "balls": []
    }
  ]
}