{
  "idLv": 241,
  "bottles": [
    {
      "balls": [
        9,
        7,
        11,
        2
      ]
    },
    {
      "balls": [
        10,
        8,
        3,
        6
      ]
    },
    {
      "balls": [
        3,
        4,
        10,
        4
      ]
    },
    {
      "balls": [
        5,
        6,
        0,
        0
      ]
    },
    {
      "balls": [
        4,
        9,
        7,
        9
      ]
    },
    {
      "balls": [
        8,
        6,
        1,
        2
      ]
    },
    {
      "balls": [
        5,
        9,
        5,
        7
      ]
    },
    {
      "balls": [
        2,
        0,
        5,
        0
      ]
    },
    {
      "balls": [
        6,
        11,
        11,
        10
      ]
    },
    {
      "balls": [
        3,
        4,
        1,
        1
      ]
    },
    {
      "balls": [
        8,
        3,
        8,
        11
      ]
    },
    {
      "balls": [
        10,
        2,
        7,
        1
      ]
    },
    {
      "balls": []
    },
    {
      "balls": []
    }
  ]
}