{
  "idLv": 246,
  "bottles": [
    {
      "balls": [
        9,
        2,
        8,
        5
      ]
    },
    {
      "balls": [
        11,
        1,
        4,
        8
      ]
    },
    {
      "balls": [
        5,
        6,
        1,
        3
      ]
    },
    {
      "balls": [
        7,
        9,
        2,
        10
      ]
    },
    {
      "balls": [
        9,
        4,
        4,
        10
      ]
    },
    {
      "balls": [
        0,
        3,
        9,
        11
      ]
    },
    {
      "balls": [
        0,
        11,
        1,
        0
      ]
    },
    {
      "balls": [
        6,
        5,
        7,
        1
      ]
    },
    {
      "balls": [
        0,
        8,
        10,
        8
      ]
    },
    {
      "balls": [
        7,
        3,
        2,
        6
      ]
    },
    {
      "balls": [
        5,
        10,
        7,
        6
      ]
    },
    {
      "balls": [
        2,
        11,
        3,
        4
      ]
    },
    {
      "balls": []
    },
    {
      "balls": []
    }
  ]
}