{
  "idLv": 248,
  "bottles": [
    {
      "balls": [
        3,
        5,
        8,
        5
      ]
    },
    {
      "balls": [
        1,
        7,
        5,
        7
      ]
    },
    {
      "balls": [
        8,
        1,
        1,
        1
      ]
    },
    {
      "balls": [
        2,
        8,
        4,
        7
      ]
    },
    {
      "balls": [
        3,
        4,
        4,
        0
      ]
    },
    {
      "balls": [
        4,
        6,
        6,
        7
      ]
    },
    {
      "balls": [
        0,
        0,
        8,
        2
      ]
    },
    {
      "balls": [
        6,
        0,
        2,
        6
      ]
    },
    {
      "balls": [
        2,
        3,
        5,
        3
      ]
    },
    {
      "balls": []
    },
    {
      "balls": []
    }
  ]
}