{
  "idLv": 259,
  "bottles": [
    {
      "balls": [
        9,
        4,
        9,
        5
      ]
    },
    {
      "balls": [
        8,
        3,
        11,
        6
      ]
    },
    {
      "balls": [
        3,
        6,
        10,
        0
      ]
    },
    {
      "balls": [
        1,
        8,
        5,
        9
      ]
    },
    {
      "balls": [
        2,
        4,
        0,
        11
      ]
    },
    {
      "balls": [
        3,
        0,
        1,
        5
      ]
    },
    {
      "balls": [
        8,
        11,
        8,
        7
      ]
    },
    {
      "balls": [
        0,
        6,
        4,
        10
      ]
    },
    {
      "balls": [
        9,
        2,
        11,
        7
      ]
    },
    {
      "balls": [
        3,
        4,
        2,
        10
      ]
    },
    {
      "balls": [
        10,
        7,
        2,
        6
      ]
    },
    {
      "balls": [
        1,
        7,
        1,
        5
      ]
    },
    {
      "balls": []
    },
    {
      "balls": []
    }
  ]
}