{
  "idLv": 252,
  "bottles": [
    {
      "balls": [
        1,
        6,
        3,
        2
      ]
    },
    {
      "balls": [
        1,
        3,
        5,
        7
      ]
    },
    {
      "balls": [
        4,
        5,
        8,
        8
      ]
    },
    {
      "balls": [
        8,
        0,
        8,
        5
      ]
    },
    {
      "balls": [
        0,
        1,
        7,
        1
      ]
    },
    {
      "balls": [
        2,
        6,
        0,
        0
      ]
    },
    {
      "balls": [
        7,
        4,
        2,
        5
      ]
    },
    {
      "balls": [
        3,
        4,
        6,
        2
      ]
    },
    {
      "balls": [
        7,
        3,
        6,
        4
      ]
    },
    {
      "balls": []
    },
    {
      "balls": []
    }
  ]
}