{
  "idLv": 253,
  "bottles": [
    {
      "balls": [
        3,
        0,
        10,
        1
      ]
    },
    {
      "balls": [
        7,
        8,
        10,
        1
      ]
    },
    {
      "balls": [
        8,
        5,
        2,
        2
      ]
    },
    {
      "balls": [
        4,
        2,
        6,
        4
      ]
    },
    {
      "balls": [
        1,
        10,
        7,
        6
      ]
    },
    {
      "balls": [
        11,
        4,
        7,
        5
      ]
    },
    {
      "balls": [
        9,
        8,
        9,
        1
      ]
    },
    {
      "balls": [
        0,
        6,
        6,
        0
      ]
    },
    {
      "balls": [
        11,
        8,
        9,
        7
      ]
    },
    {
      "balls": [
        5,
        11,
        10,
        9
      ]
    },
    {
      "balls": [
        4,
        3,
        5,
        11
      ]
    },
    {
      "balls": [
        2,
        0,
        3,
        3
      ]
    },
    {
      "balls": []
    },
    {
      "balls": []
    }
  ]
}