{
  "idLv": 257,
  "bottles": [
    {
      "balls": [
        9,
        5,
        9,
        2
      ]
    },
    {
      "balls": [
        2,
        4,
        1,
        0
      ]
    },
    {
      "balls": [
        7,
        4,
        11,
        11
      ]
    },
    {
      "balls": [
        0,
        10,
        8,
        8
      ]
    },
    {
      "balls": [
        0,
        5,
        3,
        8
      ]
    },
    {
      "balls": [
        9,
        5,
        6,
        6
      ]
    },
    {
      "balls": [
        6,
        9,
        5,
        7
      ]
    },
    {
      "balls": [
        2,
        7,
        3,
        4
      ]
    },
    {
      "balls": [
        10,
        1,
        11,
        10
      ]
    },
    {
      "balls": [
        1,
        11,
        0,
        1
      ]
    },
    {
      "balls": [
        8,
        6,
        2,
        3
      ]
    },
    {
      "balls": [
        4,
        3,
        7,
        10
      ]
    },
    {
      "balls": []
    },
    {
      "balls": []
    }
  ]
}