{
  "idLv": 256,
  "bottles": [
    {
      "balls": [
        8,
        8,
        1,
        6
      ]
    },
    {
      "balls": [
        2,
        1,
        2,
        5
      ]
    },
    {
      "balls": [
        3,
        4,
        4,
        2
      ]
    },
    {
      "balls": [
        7,
        7,
        6,
        8
      ]
    },
    {
      "balls": [
        3,
        0,
        3,
        3
      ]
    },
    {
      "balls": [
        0,
        5,
        4,
        0
      ]
    },
    {
      "balls": [
        7,
        1,
        1,
        6
      ]
    },
    {
      "balls": [
        0,
        5,
        8,
        7
      ]
    },
    {
      "balls": [
        5,
        4,
        6,
        2
      ]
    },
    {
      "balls": []
    },
    {
      "balls": []
    }
  ]
}