{
  "idLv": 251,
  "bottles": [
    {
      "balls": [
        10,
        11,
        1,
        0
      ]
    },
    {
      "balls": [
        9,
        8,
        8,
        1
      ]
    },
    {
      "balls": [
        0,
        2,
        2,
        6
      ]
    },
    {
      "balls": [
        0,
        3,
        7,
        0
      ]
    },
    {
      "balls": [
        9,
        8,
        6,
        3
      ]
    },
    {
      "balls": [
        3,
        5,
        6,
        8
      ]
    },
    {
      "balls": [
        5,
        7,
        10,
        2
      ]
    },
    {
      "balls": [
        1,
        11,
        11,
        4
      ]
    },
    {
      "balls": [
        6,
        7,
        10,
        4
      ]
    },
    {
      "balls": [
        3,
        9,
        4,
        11
      ]
    },
    {
      "balls": [
        5,
        1,
        7,
        5
      ]
    },
    {
      "balls": [
        10,
        9,
        4,
        2
      ]
    },
    {
      "balls": []
    },
    {
      "balls": []
    }
  ]
}