{
  "idLv": 261,
  "bottles": [
    {
      "balls": [
        5,
        10,
        0,
        6
      ]
    },
    {
      "balls": [
        8,
        9,
        6,
        5
      ]
    },
    {
      "balls": [
        0,
        7,
        5,
        4
      ]
    },
    {
      "balls": [
        6,
        3,
        9,
        11
      ]
    },
    {
      "balls": [
        11,
        1,
        7,
        6
      ]
    },
    {
      "balls": [
        9,
        3,
        1,
        5
      ]
    },
    {
      "balls": [
        11,
        2,
        11,
        7
      ]
    },
    {
      "balls": [
        2,
        8,
        4,
        8
      ]
    },
    {
      "balls": [
        3,
        2,
        3,
        10
      ]
    },
    {
      "balls": [
        8,
        0,
        1,
        10
      ]
    },
    {
      "balls": [
        9,
        1,
        4,
        0
      ]
    },
    {
      "balls": [
        7,
        2,
        4,
        10
      ]
    },
    {
      "balls": []
    },
    {
      "balls": []
    }
  ]
}