{
  "idLv": 266,
  "bottles": [
    {
      "balls": [
        1,
        1,
        7,
        6
      ]
    },
    {
      "balls": [
        11,
        9,
        5,
        10
      ]
    },
    {
      "balls": [
        6,
        5,
        4,
        3
      ]
    },
    {
      "balls": [
        4,
        5,
        8,
        9
      ]
    },
    {
      "balls": [
        0,
        2,
        3,
        0
      ]
    },
    {
      "balls": [
        9,
        0,
        2,
        4
      ]
    },
    {
      "balls": [
        1,
        11,
        10,
        11
      ]
    },
    {
      "balls": [
        7,
        10,
        8,
        6
      ]
    },
    {
      "balls": [
        3,
        0,
        3,
        2
      ]
    },
    {
      "balls": [
        9,
        7,
        5,
        7
      ]
    },
    {
      "balls": [
        2,
        1,
        6,
        4
      ]
    },
    {
      "balls": [
        10,
        8,
        8,
        11
      ]
    },
    {
      "balls": []
    },
    {
      "balls": []
    }
  ]
}