{
  "idLv": 262,
  "bottles": [
    {
      "balls": [
        1,
        10,
        0,
        6
      ]
    },
    {
      "balls": [
        11,
        3,
        4,
        2
      ]
    },
    {
      "balls": [
        1,
        8,
        9,
        10
      ]
    },
    {
      "balls": [
        9,
        5,
        8,
        5
      ]
    },
    {
      "balls": [
        6,
        11,
        7,
        8
      ]
    },
    {
      "balls": [
        0,
        6,
        4,
        10
      ]
    },
    {
      "balls": [
        2,
        5,
        7,
        9
      ]
    },
    {
      "balls": [
        4,
        3,
        4,
        0
      ]
    },
    {
      "balls": [
        6,
        11,
        2,
        0
      ]
    },
    {
      "balls": [
        11,
        10,
        3,
        8
      ]
    },
    {
      "balls": [
        7,
        3,
        1,
        9
      ]
    },
    {
      "balls": [
        7,
        1,
        5,
        2
      ]
    },
    {
      "balls": []
    },
    {
      "balls": []
    }
  ]
}