{
  "idLv": 265,
  "bottles": [
    {
      "balls": [
        1,
        3,
        7,
        7
      ]
    },
    {
      "balls": [
        6,
        11,
        6,
        9
      ]
    },
    {
      "balls": [
        6,
        2,
        8,
        5
      ]
    },
    {
      "balls": [
        8,
        10,
        0,
        1
      ]
    },
    {
      "balls": [
        0,
        1,
        11,
        5
      ]
    },
    {
      "balls": [
        4,
        7,
        3,
        8
      ]
    },
    {
      "balls": [
        5,
        9,
        10,
        1
      ]
    },
    {
      "balls": [
        8,
        2,
        4,
        4
      ]
    },
    {
      "balls": [
        6,
        9,
        4,
        3
      ]
    },
    {
      "balls": [
        11,
        10,
        2,
        2
      ]
    },
    {
      "balls": [
        9,
        10,
        7,
        11
      ]
    },
    {
      "balls": [
        0,
        0,
        3,
        5
      ]
    },
    {
      "balls": []
    },
    {
      "balls": []
    }
  ]
}