{
  "idLv": 27,
  "bottles": [
    {
      "balls": [
        4,
        1,
        6,
        1
      ]
    },
    {
      "balls": [
        3,
        6,
        0,
        1
      ]
    },
    {
      "balls": [
        0,
        0,
        2,
        3
      ]
    },
    {
      "balls": [
        2,
        5,
        5,
        3
      ]
    },
    {
      "balls": [
        2,
        2,
        5,
        0
      ]
    },
    {
      "balls": [
        6,
        4,
        1,
        5
      ]
    },
    {
      "balls": [
        4,
        4,
        3,
        6
      ]
    },
    {
      "balls": []
    },
    {
      "balls": []
    }
  ]
}