{
  "idLv": 274,
  "bottles": [
    {
      "balls": [
        10,
        0,
        8,
        5
      ]
    },
    {
      "balls": [
        10,
        4,
        11,
        1
      ]
    },
    {
      "balls": [
        10,
        3,
        1,
        2
      ]
    },
    {
      "balls": [
        8,
        6,
        4,
        0
      ]
    },
    {
      "balls": [
        0,
        1,
        11,
        7
      ]
    },
    {
      "balls": [
        5,
        10,
        6,
        4
      ]
    },
    {
      "balls": [
        8,
        7,
        2,
        9
      ]
    },
    {
      "balls": [
        1,
        9,
        6,
        9
      ]
    },
    {
      "balls": [
        2,
        6,
        5,
        2
      ]
    },
    {
      "balls": [
        3,
        0,
        11,
        7
      ]
    },
    {
      "balls": [
        3,
        9,
        7,
        5
      ]
    },
    {
      "balls": [
        11,
        4,
        3,
        8
      ]
    },
    {
      "balls": []
    },
    {
      "balls": []
    }
  ]
}