{
  "idLv": 271,
  "bottles": [
    {
      "balls": [
        8,
        1,
        10,
        3
      ]
    },
    {
      "balls": [
        1,
        4,
        2,
        1
      ]
    },
    {
      "balls": [
        9,
        8,
        2,
        5
      ]
    },
    {
      "balls": [
        9,
        5,
        5,
        7
      ]
    },
    {
      "balls": [
        4,
        6,
        11,
        7
      ]
    },
    {
      "balls": [
        0,
        7,
        0,
        10
      ]
    },
    {
      "balls": [
        2,
        0,
        11,
        3
      ]
    },
    {
      "balls": [
        2,
        9,
        1,
        8
      ]
    },
    {
      "balls": [
        6,
        10,
        8,
        11
      ]
    },
    {
      "balls": [
        0,
        3,
        3,
        9
      ]
    },
    {
      "balls": [
        4,
        11,
        4,
        7
      ]
    },
    {
      "balls": [
        5,
        10,
        6,
        6
      ]
    },
    {
      "balls": []
    },
    {
      "balls": []
    }
  ]
}