{
  "idLv": 279,
  "bottles": [
    {
      "balls": [
        5,
        3,
        2,
        0
      ]
    },
    {
      "balls": [
        11,
        4,
        7,
        7
      ]
    },
    {
      "balls": [
        10,
        11,
        2,
        6
      ]
    },
    {
      "balls": [
        4,
        0,
        5,
        1
      ]
    },
    {
      "balls": [
        11,
        7,
        10,
        8
      ]
    },
    {
      "balls": [
        10,
        3,
        8,
        2
      ]
    },
    {
      "balls": [
        5,
        9,
        1,
        3
      ]
    },
    {
      "balls": [
        6,
        8,
        0,
        11
      ]
    },
    {
      "balls": [
        10,
        9,
        4,
        9
      ]
    },
    {
      "balls": [
        1,
        5,
        6,
        7
      ]
    },
    {
      "balls": [
        8,
        9,
        4,
        6
      ]
    },
    {
      "balls": [
        3,
        1,
        0,
        2
      ]
    },
    {
      "balls": []
    },
    {
      "balls": []
    }
  ]
}