{
  "idLv": 287,
  "bottles": [
    {
      "balls": [
        1,
        5,
        5,
        11
      ]
    },
    {
      "balls": [
        6,
        2,
        1,
        10
      ]
    },
    {
      "balls": [
        0,
        0,
        4,
        7
      ]
    },
    {
      "balls": [
        7,
        8,
        11,
        5
      ]
    },
    {
      "balls": [
        4,
        8,
        1,
        7
      ]
    },
    {
      "balls": [
        3,
        10,
        8,
        6
      ]
    },
    {
      "balls": [
        3,
        9,
        11,
        6
      ]
    },
    {
      "balls": [
        3,
        3,
        7,
        4
      ]
    },
    {
      "balls": [
        1,
        8,
        4,
        0
      ]
    },
    {
      "balls": [
        2,
        9,
        2,
        6
      ]
    },
    {
      "balls": [
        11,
        9,
        9,
        5
      ]
    },
    {
      "balls": [
        10,
        10,
        0,
        2
      ]
    },
    {
      "balls": []
    },
    {
      "balls": []
    }
  ]
}