{
  "idLv": 281,
  "bottles": [
    {
      "balls": [
        2,
        3,
        5,
        0
      ]
    },
    {
      "balls": [
        11,
        2,
        5,
        10
      ]
    },
    {
      "balls": [
        0,
        7,
        1,
        7
      ]
    },
    {
      "balls": [
        8,
        9,
        9,
        5
      ]
    },
    {
      "balls": [
        0,
        0,
        10,
        11
      ]
    },
    {
      "balls": [
        1,
        7,
        2,
        5
      ]
    },
    {
      "balls": [
        9,
        10,
        8,
        3
      ]
    },
    {
      "balls": [
        4,
        8,
        3,
        6
      ]
    },
    {
      "balls": [
        6,
        3,
        6,
        1
      ]
    },
    {
      "balls": [
        4,
        4,
        2,
        6
      ]
    },
    {
      "balls": [
        4,
        10,
        9,
        8
      ]
    },
    {
      "balls": [
        11,
        7,
        11,
        1
      ]
    },
    {
      "balls": []
    },
    {
      "balls": []
    }
  ]
}