{
  "idLv": 285,
  "bottles": [
    {
      "balls": [
        8,
        7,
        1,
        4
      ]
    },
    {
      "balls": [
        6,
        5,
        5,
        1
      ]
    },
    {
      "balls": [
        8,
        1,
        11,
        9
      ]
    },
    {
      "balls": [
        4,
        4,
        10,
        8
      ]
    },
    {
      "balls": [
        1,
        7,
        5,
        6
      ]
    },
    {
      "balls": [
        6,
        8,
        3,
        3
      ]
    },
    {
      "balls": [
        9,
        9,
        0,
        10
      ]
    },
    {
      "balls": [
        2,
        2,
        6,
        3
      ]
    },
    {
      "balls": [
        2,
        11,
        7,
        11
      ]
    },
    {
      "balls": [
        0,
        9,
        0,
        4
      ]
    },
    {
      "balls": [
        2,
        7,
        0,
        5
      ]
    },
    {
      "balls": [
        10,
        10,
        3,
        11
      ]
    },
    {
      "balls": []
    },
    {
      "balls": []
    }
  ]
}