{
  "idLv": 284,
  "bottles": [
    {
      "balls": [
        5,
        2,
        8,
        0
      ]
    },
    {
      "balls": [
        8,
        4,
        3,
        7
      ]
    },
    {
      "balls": [
        5,
        1,
        3,
        8
      ]
    },
    {
      "balls": [
        1,
        2,
        6,
        7
      ]
    },
    {
      "balls": [
        6,
        3,
        7,
        0
      ]
    },
    {
      "balls": [
        6,
        5,
        4,
        2
      ]
    },
    {
      "balls": [
        5,
        4,
        6,
        3
      ]
    },
    {
      "balls": [
        7,
        1,
        8,
        0
      ]
    },
    {
      "balls": [
        0,
        1,
        4,
        2
      ]
    },
    {
      "balls": []
    },
    {
      "balls": []
    }
  ]
}