{
  "idLv": 294,
  "bottles": [
    {
      "balls": [
        4,
        5,
        6,
        8
      ]
    },
    {
      "balls": [
        2,
        1,
        8,
        4
      ]
    },
    {
      "balls": [
        9,
        4,
        9,
        0
      ]
    },
    {
      "balls": [
        3,
        10,
        2,
        11
      ]
    },
    {
      "balls": [
        5,
        6,
        0,
        0
      ]
    },
    {
      "balls": [
        3,
        7,
        7,
        4
      ]
    },
    {
      "balls": [
        8,
        6,
        3,
        1
      ]
    },
    {
      "balls": [
        2,
        7,
        11,
        1
      ]
    },
    {
      "balls": [
        6,
        5,
        10,
        5
      ]
    },
    {
      "balls": [
        10,
        11,
        7,
        0
      ]
    },
    {
      "balls": [
        9,
        8,
        3,
        11
      ]
    },
    {
      "balls": [
        2,
        10,
        9,
        1
      ]
    },
    {
      "balls": []
    },
    {
      "balls": []
    }
  ]
}