{
  "idLv": 295,
  "bottles": [
    {
      "balls": [
        6,
        11,
        10,
        7
      ]
    },
    {
      "balls": [
        7,
        5,
        7,
        1
      ]
    },
    {
      "balls": [
        0,
        8,
        2,
        3
      ]
    },
    {
      "balls": [
        3,
        5,
        8,
        2
      ]
    },
    {
      "balls": [
        1,
        6,
        10,
        3
      ]
    },
    {
      "balls": [
        0,
        11,
        11,
        9
      ]
    },
    {
      "balls": [
        1,
        8,
        9,
        8
      ]
    },
    {
      "balls": [
        9,
        2,
        5,
        10
      ]
    },
    {
      "balls": [
        0,
        3,
        4,
        6
      ]
    },
    {
      "balls": [
        0,
        4,
        10,
        9
      ]
    },
    {
      "balls": [
        4,
        6,
        7,
        1
      ]
    },
    {
      "balls": [
        11,
        4,
        2,
        5
      ]
    },
    {
      "balls": []
    },
    {
      "balls": []
    }
  ]
}