{
  "idLv": 299,
  "bottles": [
    {
      "balls": [
        1,
        6,
        3,
        0
      ]
    },
    {
      "balls": [
        11,
        10,
        6,
        2
      ]
    },
    {
      "balls": [
        8,
        11,
        7,
        7
      ]
    },
    {
      "balls": [
        2,
        9,
        0,
        1
      ]
    },
    {
      "balls": [
        4,
        10,
        11,
        6
      ]
    },
    {
      "balls": [
        3,
        1,
        9,
        2
      ]
    },
    {
      "balls": [
        3,
        2,
        8,
        11
      ]
    },
    {
      "balls": [
        4,
        4,
        0,
        0
      ]
    },
    {
      "balls": [
        6,
        5,
        9,
        3
      ]
    },
    {
      "balls": [
        10,
        10,
        5,
        1
      ]
    },
    {
      "balls": [
        8,
        7,
        4,
        9
      ]
    },
    {
      "balls": [
        7,
        8,
        5,
        5
      ]
    },
    {
      "balls": []
    },
    {
      "balls": []
    }
  ]
}