{
  "idLv": 290,
  "bottles": [
    {
      "balls": [
        9,
        10,
        10,
        8
      ]
    },
    {
      "balls": [
        7,
        9,
        0,
        7
      ]
    },
    {
      "balls": [
        7,
        2,
        5,
        8
      ]
    },
    {
      "balls": [
        9,
        1,
        5,
        2
      ]
    },
    {
      "balls": [
        10,
        2,
        6,
        5
      ]
    },
    {
      "balls": [
        3,
        3,
        11,
        10
      ]
    },
    {
      "balls": [
        1,
        1,
        1,
        0
      ]
    },
    {
      "balls": [
        11,
        0,
        4,
        8
      ]
    },
    {
      "balls": [
        6,
        4,
        0,
        9
      ]
    },
    {
      "balls": [
        2,
        6,
        4,
        3
      ]
    },
    {
      "balls": [
        11,
        7,
        3,
        11
      ]
    },
    {
      "balls": [
        8,
        4,
        5,
        6
      ]
    },
    {
      "balls": []
    },
    {
      "balls": []
    }
  ]
}