{
  "idLv": 292,
  "bottles": [
    {
      "balls": [
        8,
        0,
        5,
        4
      ]
    },
    {
      "balls": [
        4,
        1,
        8,
        0
      ]
    },
    {
      "balls": [
        6,
        3,
        5,
        2
      ]
    },
    {
      "balls": [
        4,
        4,
        6,
        6
      ]
    },
    {
      "balls": [
        5,
        7,
        2,
        2
      ]
    },
    {
      "balls": [
        0,
        3,
        5,
        1
      ]
    },
    {
      "balls": [
        2,
        7,
        1,
        0
      ]
    },
    {
      "balls": [
        8,
        7,
        1,
        7
      ]
    },
    {
      "balls": [
        3,
        3,
        6,
        8
      ]
    },
    {
      "balls": []
    },
    {
      "balls": []
    }
  ]
}