{
  "idLv": 301,
  "bottles": [
    {
      "balls": [
        7,
        8,
        9,
        2
      ]
    },
    {
      "balls": [
        3,
        11,
        2,
        5
      ]
    },
    {
      "balls": [
        8,
        10,
        3,
        5
      ]
    },
    {
      "balls": [
        10,
        1,
        0,
        4
      ]
    },
    {
      "balls": [
        10,
        7,
        0,
        9
      ]
    },
    {
      "balls": [
        4,
        7,
        0,
        9
      ]
    },
    {
      "balls": [
        1,
        12,
        2,
        10
      ]
    },
    {
      "balls": [
        6,
        3,
        11,
        9
      ]
    },
    {
      "balls": [
        12,
        4,
        1,
        11
      ]
    },
    {
      "balls": [
        8,
        4,
        6,
        6
      ]
    },
    {
      "balls": [
        5,
        8,
        7,
        11
      ]
    },
    {
      "balls": [
        6,
        2,
        12,
        12
      ]
    },
    {
      "balls": [
        1,
        5,
        3,
        0
      ]
    },
    {
      "balls": []
    },
    {
      "balls": []
    }
  ]
}