{
  "idLv": 306,
  "bottles": [
    {
      "balls": [
        0,
        6,
        10,
        4
      ]
    },
    {
      "balls": [
        7,
        9,
        4,
        0
      ]
    },
    {
      "balls": [
        6,
        12,
        7,
        8
      ]
    },
    {
      "balls": [
        10,
        3,
        2,
        8
      ]
    },
    {
      "balls": [
        11,
        8,
        9,
        1
      ]
    },
    {
      "balls": [
        0,
        0,
        3,
        1
      ]
    },
    {
      "balls": [
        11,
        12,
        5,
        5
      ]
    },
    {
      "balls": [
        6,
        3,
        6,
        11
      ]
    },
    {
      "balls": [
        5,
        7,
        10,
        12
      ]
    },
    {
      "balls": [
        1,
        2,
        8,
        2
      ]
    },
    {
      "balls": [
        2,
        7,
        12,
        4
      ]
    },
    {
      "balls": [
        9,
        4,
        11,
        10
      ]
    },
    {
      "balls": [
        5,
        3,
        1,
        9
      ]
    },
    {
      "balls": []
    },
    {
      "balls": []
    }
  ]
}