{
  "idLv": 317,
  "bottles": [
    {
      "balls": [
        0,
        1,
        5,
        6
      ]
    },
    {
      "balls": [
        2,
        7,
        3,
        0
      ]
    },
    {
      "balls": [
        9,
        2,
        5,
        9
      ]
    },
    {
      "balls": [
        1,
        7,
        10,
        9
      ]
    },
    {
      "balls": [
        9,
        11,
        2,
        8
      ]
    },
    {
      "balls": [
        10,
        7,
        11,
        8
      ]
    },
    {
      "balls": [
        4,
        2,
        10,
        11
      ]
    },
    {
      "balls": [
        6,
        6,
        8,
        0
      ]
    },
    {
      "balls": [
        4,
        4,
        1,
        12
      ]
    },
    {
      "balls": [
        5,
        3,
        12,
        0
      ]
    },
    {
      "balls": [
        3,
        10,
        11,
        1
      ]
    },
    {
      "balls": [
        4,
        12,
        8,
        5
      ]
    },
    {
      "balls": [
        7,
        12,
        6,
        3
      ]
    },
    {
      "balls": []
    },
    {
      "balls": []
    }
  ]
}