{
  "idLv": 318,
  "bottles": [
    {
      "balls": [
        12,
        0,
        7,
        9
      ]
    },
    {
      "balls": [
        12,
        7,
        10,
        8
      ]
    },
    {
      "balls": [
        1,
        6,
        5,
        4
      ]
    },
    {
      "balls": [
        11,
        2,
        12,
        2
      ]
    },
    {
      "balls": [
        11,
        4,
        0,
        6
      ]
    },
    {
      "balls": [
        5,
        6,
        7,
        3
      ]
    },
    {
      "balls": [
        1,
        4,
        7,
        6
      ]
    },
    {
      "balls": [
        9,
        3,
        3,
        9
      ]
    },
    {
      "balls": [
        1,
        2,
        10,
        5
      ]
    },
    {
      "balls": [
        5,
        9,
        8,
        11
      ]
    },
    {
      "balls": [
        4,
        2,
        12,
        10
      ]
    },
    {
      "balls": [
        0,
        3,
        8,
        11
      ]
    },
    {
      "balls": [
        0,
        1,
        10,
        8
      ]
    },
    {
      "balls": []
    },
    {
      "balls": []
    }
  ]
}