{
  "idLv": 310,
  "bottles": [
    {
      "balls": [
        12,
        11,
        12,
        8
      ]
    },
    {
      "balls": [
        5,
        4,
        0,
        10
      ]
    },
    {
      "balls": [
        12,
        1,
        11,
        3
      ]
    },
    {
      "balls": [
        2,
        8,
        0,
        3
      ]
    },
    {
      "balls": [
        10,
        5,
        9,
        8
      ]
    },
    {
      "balls": [
        7,
        11,
        1,
        10
      ]
    },
    {
      "balls": [
        3,
        7,
        1,
        6
      ]
    },
    {
      "balls": [
        5,
        0,
        2,
        2
      ]
    },
    {
      "balls": [
        9,
        6,
        9,
        4
      ]
    },
    {
      "balls": [
        7,
        12,
        1,
        5
      ]
    },
    {
      "balls": [
        6,
        8,
        6,
        3
      ]
    },
    {
      "balls": [
        10,
        7,
        0,
        11
      ]
    },
    {
      "balls": [
        4,
        4,
        9,
        2
      ]
    },
    {
      "balls": []
    },
    {
      "balls": []
    }
  ]
}