{
  "idLv": 312,
  "bottles": [
    {
      "balls": [
        3,
        9,
        6,
        5
      ]
    },
    {
      "balls": [
        10,
        9,
        4,
        0
      ]
    },
    {
      "balls": [
        5,
        7,
        2,
        1
      ]
    },
    {
      "balls": [
        3,
        7,
        1,
        2
      ]
    },
    {
      "balls": [
        10,
        2,
        0,
        10
      ]
    },
    {
      "balls": [
        8,
        6,
        2,
        8
      ]
    },
    {
      "balls": [
        1,
        0,
        7,
        4
      ]
    },
    {
      "balls": [
        8,
        0,
        8,
        5
      ]
    },
    {
      "balls": [
        6,
        1,
        4,
        3
      ]
    },
    {
      "balls": [
        7,
        5,
        9,
        10
      ]
    },
    {
      "balls": [
        4,
        3,
        9,
        6
      ]
    },
    {
      "balls": []
    },
    {
      "balls": []
    }
  ]
}