{
  "idLv": 327,
  "bottles": [
    {
      "balls": [
        7,
        10,
        4,
        4
      ]
    },
    {
      "balls": [
        0,
        0,
        4,
        9
      ]
    },
    {
      "balls": [
        9,
        1,
        10,
        5
      ]
    },
    {
      "balls": [
        9,
        7,
        3,
        2
      ]
    },
    {
      "balls": [
        8,
        1,
        6,
        6
      ]
    },
    {
      "balls": [
        9,
        6,
        11,
        8
      ]
    },
    {
      "balls": [
        7,
        3,
        3,
        4
      ]
    },
    {
      "balls": [
        8,
        5,
        12,
        10
      ]
    },
    {
      "balls": [
        10,
        12,
        2,
        6
      ]
    },
    {
      "balls": [
        8,
        2,
        12,
        1
      ]
    },
    {
      "balls": [
        11,
        0,
        7,
        1
      ]
    },
    {
      "balls": [
        5,
        12,
        3,
        0
      ]
    },
    {
      "balls": [
        5,
        11,
        11,
        2
      ]
    },
    {
      "balls": []
    },
    {
      "balls": []
    }
  ]
}