{
  "idLv": 322,
  "bottles": [
    {
      "balls": [
        11,
        3,
        3,
        11
      ]
    },
    {
      "balls": [
        3,
        9,
        12,
        4
      ]
    },
    {
      "balls": [
        10,
        12,
        8,
        12
      ]
    },
    {
      "balls": [
        5,
        0,
        0,
        9
      ]
    },
    {
      "balls": [
        0,
        2,
        11,
        5
      ]
    },
    {
      "balls": [
        1,
        8,
        12,
        10
      ]
    },
    {
      "balls": [
        4,
        5,
        11,
        6
      ]
    },
    {
      "balls": [
        9,
        8,
        0,
        5
      ]
    },
    {
      "balls": [
        7,
        2,
        1,
        3
      ]
    },
    {
      "balls": [
        1,
        7,
        6,
        6
      ]
    },
    {
      "balls": [
        10,
        7,
        1,
        10
      ]
    },
    {
      "balls": [
        4,
        8,
        4,
        2
      ]
    },
    {
      "balls": [
        2,
        9,
        6,
        7
      ]
    },
    {
      "balls": []
    },
    {
      "balls": []
    }
  ]
}