{
  "idLv": 323,
  "bottles": [
    {
      "balls": [
        3,
        5,
        8,
        12
      ]
    },
    {
      "balls": [
        0,
        5,
        7,
        8
      ]
    },
    {
      "balls": [
        11,
        6,
        2,
        12
      ]
    },
    {
      "balls": [
        1,
        1,
        2,
        11
      ]
    },
    {
      "balls": [
        0,
        0,
        6,
        0
      ]
    },
    {
      "balls": [
        4,
        10,
        4,
        9
      ]
    },
    {
      "balls": [
        8,
        1,
        6,
        4
      ]
    },
    {
      "balls": [
        9,
        10,
        3,
        12
      ]
    },
    {
      "balls": [
        7,
        6,
        8,
        2
      ]
    },
    {
      "balls": [
        11,
        5,
        5,
        7
      ]
    },
    {
      "balls": [
        11,
        1,
        2,
        7
      ]
    },
    {
      "balls": [
        10,
        12,
        10,
        3
      ]
    },
    {
      "balls": [
        9,
        4,
        9,
        3
      ]
    },
    {
      "balls": []
    },
    {
      "balls": []
    }
  ]
}