{
  "idLv": 332,
  "bottles": [
    {
      "balls": [
        8,
        2,
        7,
        9
      ]
    },
    {
      "balls": [
        6,
        9,
        2,
        6
      ]
    },
    {
      "balls": [
        1,
        3,
        9,
        8
      ]
    },
    {
      "balls": [
        5,
        2,
        7,
        0
      ]
    },
    {
      "balls": [
        3,
        3,
        6,
        4
      ]
    },
    {
      "balls": [
        5,
        10,
        10,
        4
      ]
    },
    {
      "balls": [
        5,
        10,
        3,
        0
      ]
    },
    {
      "balls": [
        1,
        1,
        9,
        7
      ]
    },
    {
      "balls": [
        2,
        6,
        10,
        1
      ]
    },
    {
      "balls": [
        7,
        4,
        4,
        8
      ]
    },
    {
      "balls": [
        0,
        5,
        0,
        8
      ]
    },
    {
      "balls": []
    },
    {
      "balls": []
    }
  ]
}