{
  "idLv": 333,
  "bottles": [
    {
      "balls": [
        7,
        2,
        0,
        8
      ]
    },
    {
      "balls": [
        1,
        4,
        9,
        5
      ]
    },
    {
      "balls": [
        11,
        12,
        3,
        5
      ]
    },
    {
      "balls": [
        3,
        2,
        4,
        0
      ]
    },
    {
      "balls": [
        12,
        7,
        10,
        1
      ]
    },
    {
      "balls": [
        7,
        4,
        12,
        2
      ]
    },
    {
      "balls": [
        10,
        11,
        7,
        4
      ]
    },
    {
      "balls": [
        10,
        9,
        11,
        9
      ]
    },
    {
      "balls": [
        5,
        3,
        9,
        3
      ]
    },
    {
      "balls": [
        12,
        5,
        6,
        0
      ]
    },
    {
      "balls": [
        10,
        8,
        11,
        2
      ]
    },
    {
      "balls": [
        8,
        6,
        8,
        1
      ]
    },
    {
      "balls": [
        1,
        6,
        6,
        0
      ]
    },
    {
      "balls": []
    },
    {
      "balls": []
    }
  ]
}