{
  "idLv": 335,
  "bottles": [
    {
      "balls": [
        6,
        10,
        10,
        0
      ]
    },
    {
      "balls": [
        0,
        3,
        2,
        5
      ]
    },
    {
      "balls": [
        11,
        6,
        7,
        6
      ]
    },
    {
      "balls": [
        4,
        12,
        12,
        10
      ]
    },
    {
      "balls": [
        1,
        11,
        4,
        11
      ]
    },
    {
      "balls": [
        3,
        8,
        2,
        9
      ]
    },
    {
      "balls": [
        2,
        9,
        7,
        9
      ]
    },
    {
      "balls": [
        8,
        7,
        11,
        5
      ]
    },
    {
      "balls": [
        5,
        9,
        5,
        1
      ]
    },
    {
      "balls": [
        0,
        8,
        4,
        3
      ]
    },
    {
      "balls": [
        1,
        6,
        2,
        12
      ]
    },
    {
      "balls": [
        3,
        4,
        10,
        1
      ]
    },
    {
      "balls": [
        8,
        12,
        0,
        7
      ]
    },
    {
      "balls": []
    },
    {
      "balls": []
    }
  ]
}