{
  "idLv": 337,
  "bottles": [
    {
      "balls": [
        0,
        3,
        5,
        2
      ]
    },
    {
      "balls": [
        8,
        12,
        7,
        8
      ]
    },
    {
      "balls": [
        7,
        11,
        9,
        4
      ]
    },
    {
      "balls": [
        2,
        11,
        9,
        6
      ]
    },
    {
      "balls": [
        9,
        0,
        2,
        3
      ]
    },
    {
      "balls": [
        4,
        9,
        11,
        7
      ]
    },
    {
      "balls": [
        2,
        4,
        12,
        10
      ]
    },
    {
      "balls": [
        6,
        4,
        10,
        1
      ]
    },
    {
      "balls": [
        5,
        10,
        6,
        6
      ]
    },
    {
      "balls": [
        1,
        12,
        12,
        8
      ]
    },
    {
      "balls": [
        10,
        11,
        0,
        3
      ]
    },
    {
      "balls": [
        5,
        8,
        3,
        7
      ]
    },
    {
      "balls": [
        5,
        1,
        1,
        0
      ]
    },
    {
      "balls": []
    },
    {
      "balls": []
    }
  ]
}