{
  "idLv": 348,
  "bottles": [
    {
      "balls": [
        5,
        6,
        3,
        9
      ]
    },
    {
      "balls": [
        7,
        6,
        8,
        8
      ]
    },
    {
      "balls": [
        8,
        7,
        10,
        3
      ]
    },
    {
      "balls": [
        3,
        0,
        1,
        2
      ]
    },
    {
      "balls": [
        3,
        0,
        9,
        5
      ]
    },
    {
      "balls": [
        1,
        4,
        10,
        6
      ]
    },
    {
      "balls": [
        10,
        5,
        2,
        9
      ]
    },
    {
      "balls": [
        2,
        1,
        7,
        4
      ]
    },
    {
      "balls": [
        5,
        10,
        4,
        9
      ]
    },
    {
      "balls": [
        0,
        7,
        4,
        0
      ]
    },
    {
      "balls": [
        8,
        2,
        6,
        1
      ]
    },
    {
      "balls": []
    },
    {
      "balls": []
    }
  ]
}