{
  "idLv": 349,
  "bottles": [
    {
      "balls": [
        10,
        9,
        2,
        9
      ]
    },
    {
      "balls": [
        5,
        11,
        8,
        6
      ]
    },
    {
      "balls": [
        7,
        11,
        12,
        3
      ]
    },
    {
      "balls": [
        6,
        7,
        8,
        12
      ]
    },
    {
      "balls": [
        10,
        0,
        6,
        3
      ]
    },
    {
      "balls": [
        7,
        5,
        3,
        4
      ]
    },
    {
      "balls": [
        2,
        0,
        10,
        1
      ]
    },
    {
      "balls": [
        10,
        11,
        1,
        9
      ]
    },
    {
      "balls": [
        2,
        11,
        8,
        7
      ]
    },
    {
      "balls": [
        3,
        9,
        5,
        12
      ]
    },
    {
      "balls": [
        4,
        0,
        4,
        4
      ]
    },
    {
      "balls": [
        12,
        0,
        5,
        2
      ]
    },
    {
      "balls": [
        1,
        1,
        6,
        8
      ]
    },
    {
      "balls": []
    },
    {
      "balls": []
    }
  ]
}