{
  "idLv": 34,
  "bottles": [
    {
      "balls": [
        4,
        5,
        3,
        2
      ]
    },
    {
      "balls": [
        0,
        6,
        4,
        2
      ]
    },
    {
      "balls": [
        6,
        5,
        3,
        6
      ]
    },
    {
      "balls": [
        1,
        0,
        4,
        5
      ]
    },
    {
      "balls": [
        3,
        1,
        1,
        1
      ]
    },
    {
      "balls": [
        3,
        0,
        0,
        4
      ]
    },
    {
      "balls": [
        2,
        5,
        2,
        6
      ]
    },
    {
      "balls": []
    },
    {
      "balls": []
    }
  ]
}