{
  "idLv": 344,
  "bottles": [
    {
      "balls": [
        8,
        5,
        10,
        6
      ]
    },
    {
      "balls": [
        9,
        2,
        0,
        0
      ]
    },
    {
      "balls": [
        1,
        7,
        9,
        0
      ]
    },
    {
      "balls": [
        7,
        6,
        3,
        4
      ]
    },
    {
      "balls": [
        2,
        0,
        9,
        7
      ]
    },
    {
      "balls": [
        10,
        4,
        8,
        5
      ]
    },
    {
      "balls": [
        10,
        2,
        3,
        5
      ]
    },
    {
      "balls": [
        6,
        10,
        2,
        6
      ]
    },
    {
      "balls": [
        7,
        1,
        1,
        5
      ]
    },
    {
      "balls": [
        9,
        1,
        4,
        8
      ]
    },
    {
      "balls": [
        8,
        4,
        3,
        3
      ]
    },
    {
      "balls": []
    },
    {
      "balls": []
    }
  ]
}