{
  "idLv": 352,
  "bottles": [
    {
      "balls": [
        7,
        4,
        9,
        3
      ]
    },
    {
      "balls": [
        5,
        9,
        9,
        5
      ]
    },
    {
      "balls": [
        9,
        8,
        2,
        4
      ]
    },
    {
      "balls": [
        2,
        7,
        0,
        7
      ]
    },
    {
      "balls": [
        6,
        1,
        0,
        1
      ]
    },
    {
      "balls": [
        10,
        6,
        5,
        6
      ]
    },
    {
      "balls": [
        3,
        2,
        5,
        0
      ]
    },
    {
      "balls": [
        2,
        6,
        3,
        3
      ]
    },
    {
      "balls": [
        0,
        8,
        4,
        4
      ]
    },
    {
      "balls": [
        8,
        8,
        10,
        10
      ]
    },
    {
      "balls": [
        7,
        1,
        10,
        1
      ]
    },
    {
      "balls": []
    },
    {
      "balls": []
    }
  ]
}