{
  "idLv": 354,
  "bottles": [
    {
      "balls": [
        6,
        11,
        11,
        0
      ]
    },
    {
      "balls": [
        10,
        9,
        7,
        0
      ]
    },
    {
      "balls": [
        7,
        10,
        12,
        5
      ]
    },
    {
      "balls": [
        5,
        4,
        6,
        8
      ]
    },
    {
      "balls": [
        1,
        10,
        4,
        9
      ]
    },
    {
      "balls": [
        2,
        10,
        6,
        0
      ]
    },
    {
      "balls": [
        2,
        11,
        12,
        2
      ]
    },
    {
      "balls": [
        1,
        6,
        4,
        2
      ]
    },
    {
      "balls": [
        3,
        9,
        7,
        5
      ]
    },
    {
      "balls": [
        3,
        0,
        8,
        1
      ]
    },
    {
      "balls": [
        3,
        1,
        9,
        8
      ]
    },
    {
      "balls": [
        7,
        11,
        12,
        3
      ]
    },
    {
      "balls": [
        8,
        5,
        4,
        12
      ]
    },
    {
      "balls": []
    },
    {
      "balls": []
    }
  ]
}