{
  "idLv": 356,
  "bottles": [
    {
      "balls": [
        7,
        1,
        2,
        10
      ]
    },
    {
      "balls": [
        10,
        10,
        1,
        8
      ]
    },
    {
      "balls": [
        5,
        9,
        7,
        6
      ]
    },
    {
      "balls": [
        3,
        8,
        4,
        2
      ]
    },
    {
      "balls": [
        9,
        6,
        10,
        8
      ]
    },
    {
      "balls": [
        1,
        6,
        4,
        3
      ]
    },
    {
      "balls": [
        3,
        9,
        3,
        8
      ]
    },
    {
      "balls": [
        6,
        0,
        4,
        2
      ]
    },
    {
      "balls": [
        2,
        7,
        5,
        5
      ]
    },
    {
      "balls": [
        0,
        5,
        9,
        1
      ]
    },
    {
      "balls": [
        4,
        7,
        0,
        0
      ]
    },
    {
      "balls": []
    },
    {
      "balls": []
    }
  ]
}