{
  "idLv": 368,
  "bottles": [
    {
      "balls": [
        2,
        1,
        2,
        9
      ]
    },
    {
      "balls": [
        5,
        3,
        1,
        5
      ]
    },
    {
      "balls": [
        5,
        4,
        10,
        4
      ]
    },
    {
      "balls": [
        1,
        4,
        10,
        0
      ]
    },
    {
      "balls": [
        9,
        6,
        6,
        9
      ]
    },
    {
      "balls": [
        9,
        0,
        7,
        4
      ]
    },
    {
      "balls": [
        2,
        8,
        10,
        10
      ]
    },
    {
      "balls": [
        7,
        8,
        5,
        6
      ]
    },
    {
      "balls": [
        3,
        8,
        0,
        0
      ]
    },
    {
      "balls": [
        8,
        1,
        3,
        7
      ]
    },
    {
      "balls": [
        6,
        3,
        2,
        7
      ]
    },
    {
      "balls": []
    },
    {
      "balls": []
    }
  ]
}