{
  "idLv": 364,
  "bottles": [
    {
      "balls": [
        6,
        7,
        10,
        2
      ]
    },
    {
      "balls": [
        6,
        9,
        5,
        0
      ]
    },
    {
      "balls": [
        6,
        0,
        4,
        9
      ]
    },
    {
      "balls": [
        4,
        8,
        8,
        1
      ]
    },
    {
      "balls": [
        9,
        8,
        8,
        4
      ]
    },
    {
      "balls": [
        5,
        3,
        7,
        0
      ]
    },
    {
      "balls": [
        2,
        2,
        5,
        10
      ]
    },
    {
      "balls": [
        5,
        1,
        7,
        4
      ]
    },
    {
      "balls": [
        1,
        3,
        6,
        3
      ]
    },
    {
      "balls": [
        10,
        1,
        2,
        3
      ]
    },
    {
      "balls": [
        10,
        7,
        9,
        0
      ]
    },
    {
      "balls": []
    },
    {
      "balls": []
    }
  ]
}