{
  "idLv": 379,
  "bottles": [
    {
      "balls": [
        6,
        9,
        11,
        11
      ]
    },
    {
      "balls": [
        6,
        12,
        1,
        0
      ]
    },
    {
      "balls": [
        12,
        8,
        8,
        9
      ]
    },
    {
      "balls": [
        9,
        5,
        0,
        8
      ]
    },
    {
      "balls": [
        11,
        1,
        6,
        2
      ]
    },
    {
      "balls": [
        12,
        8,
        2,
        4
      ]
    },
    {
      "balls": [
        10,
        4,
        3,
        10
      ]
    },
    {
      "balls": [
        5,
        12,
        0,
        10
      ]
    },
    {
      "balls": [
        3,
        3,
        1,
        5
      ]
    },
    {
      "balls": [
        2,
        7,
        6,
        7
      ]
    },
    {
      "balls": [
        2,
        4,
        3,
        9
      ]
    },
    {
      "balls": [
        5,
        0,
        11,
        4
      ]
    },
    {
      "balls": [
        7,
        1,
        10,
        7
      ]
    },
    {
      "balls": []
    },
    {
      "balls": []
    }
  ]
}