{
  "idLv": 370,
  "bottles": [
    {
      "balls": [
        7,
        0,
        9,
        9
      ]
    },
    {
      "balls": [
        10,
        4,
        12,
        10
      ]
    },
    {
      "balls": [
        7,
        4,
        10,
        1
      ]
    },
    {
      "balls": [
        6,
        8,
        0,
        12
      ]
    },
    {
      "balls": [
        11,
        0,
        0,
        11
      ]
    },
    {
      "balls": [
        2,
        11,
        3,
        12
      ]
    },
    {
      "balls": [
        8,
        3,
        4,
        8
      ]
    },
    {
      "balls": [
        5,
        2,
        1,
        11
      ]
    },
    {
      "balls": [
        6,
        2,
        4,
        5
      ]
    },
    {
      "balls": [
        9,
        7,
        3,
        5
      ]
    },
    {
      "balls": [
        9,
        2,
        1,
        7
      ]
    },
    {
      "balls": [
        3,
        6,
        8,
        12
      ]
    },
    {
      "balls": [
        10,
        1,
        5,
        6
      ]
    },
    {
      "balls": []
    },
    {
      "balls": []
    }
  ]
}