{
  "idLv": 388,
  "bottles": [
    {
      "balls": [
        2,
        1,
        9,
        8
      ]
    },
    {
      "balls": [
        10,
        6,
        9,
        1
      ]
    },
    {
      "balls": [
        8,
        1,
        5,
        6
      ]
    },
    {
      "balls": [
        4,
        7,
        1,
        0
      ]
    },
    {
      "balls": [
        4,
        5,
        2,
        7
      ]
    },
    {
      "balls": [
        7,
        3,
        6,
        7
      ]
    },
    {
      "balls": [
        10,
        4,
        3,
        0
      ]
    },
    {
      "balls": [
        8,
        6,
        5,
        0
      ]
    },
    {
      "balls": [
        0,
        9,
        8,
        2
      ]
    },
    {
      "balls": [
        4,
        5,
        10,
        3
      ]
    },
    {
      "balls": [
        2,
        10,
        9,
        3
      ]
    },
    {
      "balls": []
    },
    {
      "balls": []
    }
  ]
}