{
  "idLv": 382,
  "bottles": [
    {
      "balls": [
        2,
        10,
        0,
        11
      ]
    },
    {
      "balls": [
        7,
        3,
        0,
        4
      ]
    },
    {
      "balls": [
        7,
        5,
        9,
        8
      ]
    },
    {
      "balls": [
        10,
        4,
        11,
        6
      ]
    },
    {
      "balls": [
        9,
        10,
        7,
        4
      ]
    },
    {
      "balls": [
        5,
        5,
        6,
        11
      ]
    },
    {
      "balls": [
        7,
        6,
        9,
        6
      ]
    },
    {
      "balls": [
        2,
        1,
        8,
        9
      ]
    },
    {
      "balls": [
        0,
        12,
        2,
        2
      ]
    },
    {
      "balls": [
        1,
        12,
        3,
        11
      ]
    },
    {
      "balls": [
        12,
        8,
        8,
        5
      ]
    },
    {
      "balls": [
        1,
        1,
        10,
        0
      ]
    },
    {
      "balls": [
        12,
        3,
        4,
        3
      ]
    },
    {
      "balls": []
    },
    {
      "balls": []
    }
  ]
}