{
  "idLv": 383,
  "bottles": [
    {
      "balls": [
        8,
        6,
        12,
        2
      ]
    },
    {
      "balls": [
        11,
        9,
        4,
        9
      ]
    },
    {
      "balls": [
        6,
        4,
        7,
        8
      ]
    },
    {
      "balls": [
        1,
        3,
        7,
        1
      ]
    },
    {
      "balls": [
        5,
        8,
        10,
        1
      ]
    },
    {
      "balls": [
        9,
        6,
        0,
        11
      ]
    },
    {
      "balls": [
        0,
        1,
        11,
        5
      ]
    },
    {
      "balls": [
        8,
        3,
        10,
        9
      ]
    },
    {
      "balls": [
        10,
        12,
        12,
        7
      ]
    },
    {
      "balls": [
        4,
        5,
        2,
        11
      ]
    },
    {
      "balls": [
        12,
        0,
        3,
        7
      ]
    },
    {
      "balls": [
        6,
        2,
        10,
        3
      ]
    },
    {
      "balls": [
        4,
        5,
        0,
        2
      ]
    },
    {
      "balls": []
    },
    {
      "balls": []
    }
  ]
}