{
  "idLv": 384,
  "bottles": [
    {
      "balls": [
        10,
        4,
        2,
        9
      ]
    },
    {
      "balls": [
        8,
        1,
        7,
        3
      ]
    },
    {
      "balls": [
        0,
        1,
        5,
        8
      ]
    },
    {
      "balls": [
        3,
        3,
        0,
        5
      ]
    },
    {
      "balls": [
        5,
        5,
        6,
        6
      ]
    },
    {
      "balls": [
        6,
        4,
        8,
        10
      ]
    },
    {
      "balls": [
        4,
        7,
        10,
        9
      ]
    },
    {
      "balls": [
        8,
        2,
        2,
        6
      ]
    },
    {
      "balls": [
        9,
        2,
        10,
        1
      ]
    },
    {
      "balls": [
        0,
        7,
        9,
        3
      ]
    },
    {
      "balls": [
        1,
        0,
        7,
        4
      ]
    },
    {
      "balls": []
    },
    {
      "balls": []
    }
  ]
}