{
  "idLv": 392,
  "bottles": [
    {
      "balls": [
        5,
        9,
        6,
        8
      ]
    },
    {
      "balls": [
        5,
        7,
        10,
        6
      ]
    },
    {
      "balls": [
        10,
        5,
        9,
        3
      ]
    },
    {
      "balls": [
        7,
        6,
        3,
        2
      ]
    },
    {
      "balls": [
        0,
        0,
        1,
        4
      ]
    },
    {
      "balls": [
        2,
        1,
        4,
        7
      ]
    },
    {
      "balls": [
        9,
        7,
        2,
        8
      ]
    },
    {
      "balls": [
        6,
        0,
        4,
        5
      ]
    },
    {
      "balls": [
        0,
        3,
        1,
        2
      ]
    },
    {
      "balls": [
        3,
        8,
        9,
        10
      ]
    },
    {
      "balls": [
        4,
        8,
        1,
        10
      ]
    },
    {
      "balls": []
    },
    {
      "balls": []
    }
  ]
}