{
  "idLv": 390,
  "bottles": [
    {
      "balls": [
        11,
        4,
        6,
        10
      ]
    },
    {
      "balls": [
        6,
        1,
        11,
        3
      ]
    },
    {
      "balls": [
        11,
        8,
        9,
        9
      ]
    },
    {
      "balls": [
        0,
        12,
        7,
        1
      ]
    },
    {
      "balls": [
        7,
        12,
        9,
        5
      ]
    },
    {
      "balls": [
        3,
        5,
        1,
        2
      ]
    },
    {
      "balls": [
        5,
        10,
        12,
        1
      ]
    },
    {
      "balls": [
        11,
        3,
        7,
        3
      ]
    },
    {
      "balls": [
        0,
        4,
        8,
        9
      ]
    },
    {
      "balls": [
        0,
        10,
        4,
        2
      ]
    },
    {
      "balls": [
        2,
        5,
        0,
        10
      ]
    },
    {
      "balls": [
        12,
        8,
        6,
        7
      ]
    },
    {
      "balls": [
        8,
        4,
        2,
        6
      ]
    },
    {
      "balls": []
    },
    {
      "balls": []
    }
  ]
}