{
  "idLv": 393,
  "bottles": [
    {
      "balls": [
        5,
        6,
        10,
        3
      ]
    },
    {
      "balls": [
        8,
        7,
        7,
        7
      ]
    },
    {
      "balls": [
        2,
        6,
        5,
        2
      ]
    },
    {
      "balls": [
        3,
        4,
        9,
        10
      ]
    },
    {
      "balls": [
        9,
        4,
        11,
        11
      ]
    },
    {
      "balls": [
        3,
        4,
        1,
        0
      ]
    },
    {
      "balls": [
        1,
        11,
        5,
        0
      ]
    },
    {
      "balls": [
        12,
        10,
        2,
        1
      ]
    },
    {
      "balls": [
        8,
        2,
        8,
        0
      ]
    },
    {
      "balls": [
        12,
        5,
        4,
        3
      ]
    },
    {
      "balls": [
        12,
        9,
        7,
        6
      ]
    },
    {
      "balls": [
        9,
        11,
        8,
        0
      ]
    },
    {
      "balls": [
        6,
        1,
        10,
        12
      ]
    },
    {
      "balls": []
    },
    {
      "balls": []
    }
  ]
}