{
  "idLv": 404,
  "bottles": [
    {
      "balls": [
        9,
        7,
        2,
        11
      ]
    },
    {
      "balls": [
        9,
        10,
        6,
        1
      ]
    },
    {
      "balls": [
        9,
        5,
        8,
        6
      ]
    },
    {
      "balls": [
        1,
        7,
        2,
        11
      ]
    },
    {
      "balls": [
        3,
        5,
        9,
        3
      ]
    },
    {
      "balls": [
        0,
        3,
        10,
        2
      ]
    },
    {
      "balls": [
        11,
        1,
        8,
        4
      ]
    },
    {
      "balls": [
        4,
        8,
        8,
        1
      ]
    },
    {
      "balls": [
        11,
        0,
        7,
        10
      ]
    },
    {
      "balls": [
        0,
        10,
        7,
        2
      ]
    },
    {
      "balls": [
        4,
        4,
        3,
        6
      ]
    },
    {
      "balls": [
        0,
        5,
        5,
        6
      ]
    },
    {
      "balls": []
    },
    {
      "balls": []
    }
  ]
}