{
  "idLv": 406,
  "bottles": [
    {
      "balls": [
        10,
        0,
        12,
        0
      ]
    },
    {
      "balls": [
        7,
        7,
        10,
        3
      ]
    },
    {
      "balls": [
        3,
        9,
        0,
        9
      ]
    },
    {
      "balls": [
        7,
        1,
        12,
        3
      ]
    },
    {
      "balls": [
        6,
        12,
        7,
        2
      ]
    },
    {
      "balls": [
        1,
        2,
        13,
        12
      ]
    },
    {
      "balls": [
        1,
        6,
        11,
        5
      ]
    },
    {
      "balls": [
        9,
        11,
        8,
        10
      ]
    },
    {
      "balls": [
        4,
        4,
        13,
        8
      ]
    },
    {
      "balls": [
        2,
        6,
        1,
        6
      ]
    },
    {
      "balls": [
        0,
        8,
        2,
        9
      ]
    },
    {
      "balls": [
        4,
        8,
        5,
        10
      ]
    },
    {
      "balls": [
        5,
        13,
        11,
        4
      ]
    },
    {
      "balls": [
        13,
        11,
        5,
        3
      ]
    },
    {
      "balls": []
    },
    {
      "balls": []
    }
  ]
}