{
  "idLv": 400,
  "bottles": [
    {
      "balls": [
        3,
        2,
        5,
        7
      ]
    },
    {
      "balls": [
        5,
        9,
        1,
        9
      ]
    },
    {
      "balls": [
        7,
        4,
        5,
        10
      ]
    },
    {
      "balls": [
        0,
        9,
        3,
        6
      ]
    },
    {
      "balls": [
        6,
        5,
        2,
        1
      ]
    },
    {
      "balls": [
        4,
        2,
        6,
        8
      ]
    },
    {
      "balls": [
        8,
        10,
        0,
        4
      ]
    },
    {
      "balls": [
        3,
        9,
        4,
        7
      ]
    },
    {
      "balls": [
        10,
        10,
        3,
        8
      ]
    },
    {
      "balls": [
        1,
        6,
        7,
        1
      ]
    },
    {
      "balls": [
        0,
        2,
        8,
        0
      ]
    },
    {
      "balls": []
    },
    {
      "balls": []
    }
  ]
}