{
  "idLv": 409,
  "bottles": [
    {
      "balls": [
        4,
        0,
        7,
        13
      ]
    },
    {
      "balls": [
        11,
        6,
        8,
        13
      ]
    },
    {
      "balls": [
        2,
        5,
        9,
        10
      ]
    },
    {
      "balls": [
        1,
        4,
        7,
        6
      ]
    },
    {
      "balls": [
        12,
        0,
        3,
        9
      ]
    },
    {
      "balls": [
        0,
        9,
        6,
        12
      ]
    },
    {
      "balls": [
        4,
        7,
        10,
        5
      ]
    },
    {
      "balls": [
        2,
        3,
        4,
        2
      ]
    },
    {
      "balls": [
        8,
        11,
        8,
        3
      ]
    },
    {
      "balls": [
        13,
        10,
        11,
        9
      ]
    },
    {
      "balls": [
        5,
        11,
        3,
        8
      ]
    },
    {
      "balls": [
        5,
        0,
        6,
        1
      ]
    },
    {
      "balls": [
        10,
        13,
        1,
        2
      ]
    },
    {
      "balls": [
        12,
        1,
        7,
        12
      ]
    },
    {
      "balls": []
    },
    {
      "balls": []
    }
  ]
}