{
  "idLv": 414,
  "bottles": [
    {
      "balls": [
        2,
        6,
        7,
        8
      ]
    },
    {
      "balls": [
        8,
        3,
        5,
        11
      ]
    },
    {
      "balls": [
        9,
        10,
        5,
        7
      ]
    },
    {
      "balls": [
        1,
        12,
        5,
        10
      ]
    },
    {
      "balls": [
        10,
        13,
        9,
        6
      ]
    },
    {
      "balls": [
        1,
        0,
        13,
        4
      ]
    },
    {
      "balls": [
        13,
        12,
        11,
        4
      ]
    },
    {
      "balls": [
        9,
        0,
        4,
        6
      ]
    },
    {
      "balls": [
        3,
        13,
        0,
        10
      ]
    },
    {
      "balls": [
        3,
        6,
        3,
        9
      ]
    },
    {
      "balls": [
        8,
        5,
        12,
        0
      ]
    },
    {
      "balls": [
        2,
        2,
        7,
        7
      ]
    },
    {
      "balls": [
        1,
        4,
        2,
        11
      ]
    },
    {
      "balls": [
        11,
        8,
        1,
        12
      ]
    },
    {
      "balls": []
    },
    {
      "balls": []
    }
  ]
}