{
  "idLv": 418,
  "bottles": [
    {
      "balls": [
        2,
        4,
        2,
        5
      ]
    },
    {
      "balls": [
        6,
        9,
        11,
        0
      ]
    },
    {
      "balls": [
        7,
        1,
        5,
        0
      ]
    },
    {
      "balls": [
        13,
        1,
        0,
        11
      ]
    },
    {
      "balls": [
        3,
        12,
        8,
        7
      ]
    },
    {
      "balls": [
        11,
        7,
        6,
        9
      ]
    },
    {
      "balls": [
        10,
        10,
        8,
        6
      ]
    },
    {
      "balls": [
        5,
        3,
        13,
        13
      ]
    },
    {
      "balls": [
        1,
        9,
        0,
        4
      ]
    },
    {
      "balls": [
        6,
        12,
        3,
        3
      ]
    },
    {
      "balls": [
        1,
        11,
        10,
        8
      ]
    },
    {
      "balls": [
        9,
        12,
        12,
        10
      ]
    },
    {
      "balls": [
        4,
        7,
        5,
        4
      ]
    },
    {
      "balls": [
        13,
        2,
        8,
        2
      ]
    },
    {
      "balls": []
    },
    {
      "balls": []
    }
  ]
}