{
  "idLv": 416,
  "bottles": [
    {
      "balls": [
        1,
        11,
        10,
        2
      ]
    },
    {
      "balls": [
        4,
        7,
        10,
        5
      ]
    },
    {
      "balls": [
        4,
        3,
        11,
        3
      ]
    },
    {
      "balls": [
        6,
        8,
        0,
        0
      ]
    },
    {
      "balls": [
        9,
        9,
        0,
        6
      ]
    },
    {
      "balls": [
        8,
        0,
        2,
        6
      ]
    },
    {
      "balls": [
        5,
        1,
        1,
        1
      ]
    },
    {
      "balls": [
        8,
        7,
        5,
        9
      ]
    },
    {
      "balls": [
        10,
        7,
        6,
        2
      ]
    },
    {
      "balls": [
        4,
        11,
        4,
        5
      ]
    },
    {
      "balls": [
        11,
        8,
        9,
        2
      ]
    },
    {
      "balls": [
        3,
        3,
        7,
        10
      ]
    },
    {
      "balls": []
    },
    {
      "balls": []
    }
  ]
}