{
  "idLv": 426,
  "bottles": [
    {
      "balls": [
        13,
        11,
        6,
        1
      ]
    },
    {
      "balls": [
        10,
        7,
        0,
        4
      ]
    },
    {
      "balls": [
        8,
        10,
        4,
        4
      ]
    },
    {
      "balls": [
        0,
        7,
        12,
        11
      ]
    },
    {
      "balls": [
        4,
        0,
        1,
        12
      ]
    },
    {
      "balls": [
        12,
        2,
        7,
        13
      ]
    },
    {
      "balls": [
        5,
        0,
        2,
        6
      ]
    },
    {
      "balls": [
        5,
        5,
        1,
        3
      ]
    },
    {
      "balls": [
        3,
        8,
        9,
        3
      ]
    },
    {
      "balls": [
        11,
        10,
        9,
        2
      ]
    },
    {
      "balls": [
        10,
        6,
        7,
        8
      ]
    },
    {
      "balls": [
        5,
        12,
        6,
        13
      ]
    },
    {
      "balls": [
        3,
        9,
        11,
        8
      ]
    },
    {
      "balls": [
        9,
        2,
        1,
        13
      ]
    },
    {
      "balls": []
    },
    {
      "balls": []
    }
  ]
}