{
  "idLv": 432,
  "bottles": [
    {
      "balls": [
        9,
        10,
        11,
        7
      ]
    },
    {
      "balls": [
        0,
        2,
        1,
        5
      ]
    },
    {
      "balls": [
        9,
        7,
        0,
        11
      ]
    },
    {
      "balls": [
        6,
        10,
        1,
        6
      ]
    },
    {
      "balls": [
        3,
        3,
        4,
        0
      ]
    },
    {
      "balls": [
        11,
        7,
        0,
        1
      ]
    },
    {
      "balls": [
        6,
        11,
        4,
        10
      ]
    },
    {
      "balls": [
        7,
        6,
        2,
        8
      ]
    },
    {
      "balls": [
        1,
        10,
        5,
        8
      ]
    },
    {
      "balls": [
        2,
        4,
        5,
        2
      ]
    },
    {
      "balls": [
        3,
        9,
        4,
        8
      ]
    },
    {
      "balls": [
        3,
        8,
        9,
        5
      ]
    },
    {
      "balls": []
    },
    {
      "balls": []
    }
  ]
}