{
  "idLv": 436,
  "bottles": [
    {
      "balls": [
        7,
        0,
        0,
        3
      ]
    },
    {
      "balls": [
        9,
        10,
        5,
        11
      ]
    },
    {
      "balls": [
        11,
        10,
        4,
        1
      ]
    },
    {
      "balls": [
        11,
        2,
        7,
        8
      ]
    },
    {
      "balls": [
        6,
        4,
        5,
        2
      ]
    },
    {
      "balls": [
        1,
        6,
        9,
        8
      ]
    },
    {
      "balls": [
        6,
        11,
        3,
        3
      ]
    },
    {
      "balls": [
        8,
        6,
        7,
        2
      ]
    },
    {
      "balls": [
        8,
        4,
        1,
        9
      ]
    },
    {
      "balls": [
        0,
        5,
        0,
        10
      ]
    },
    {
      "balls": [
        1,
        4,
        2,
        5
      ]
    },
    {
      "balls": [
        7,
        3,
        9,
        10
      ]
    },
    {
      "balls": []
    },
    {
      "balls": []
    }
  ]
}