{
  "idLv": 437,
  "bottles": [
    {
      "balls": [
        12,
        5,
        0,
        9
      ]
    },
    {
      "balls": [
        13,
        3,
        2,
        5
      ]
    },
    {
      "balls": [
        8,
        2,
        10,
        0
      ]
    },
    {
      "balls": [
        9,
        6,
        11,
        11
      ]
    },
    {
      "balls": [
        4,
        3,
        0,
        9
      ]
    },
    {
      "balls": [
        4,
        11,
        7,
        13
      ]
    },
    {
      "balls": [
        1,
        6,
        1,
        5
      ]
    },
    {
      "balls": [
        4,
        7,
        10,
        3
      ]
    },
    {
      "balls": [
        2,
        1,
        2,
        11
      ]
    },
    {
      "balls": [
        1,
        7,
        6,
        13
      ]
    },
    {
      "balls": [
        4,
        10,
        3,
        10
      ]
    },
    {
      "balls": [
        9,
        0,
        8,
        12
      ]
    },
    {
      "balls": [
        12,
        6,
        7,
        12
      ]
    },
    {
      "balls": [
        13,
        8,
        8,
        5
      ]
    },
    {
      "balls": []
    },
    {
      "balls": []
    }
  ]
}