{
  "idLv": 449,
  "bottles": [
    {
      "balls": [
        4,
        5,
        13,
        6
      ]
    },
    {
      "balls": [
        7,
        10,
        12,
        6
      ]
    },
    {
      "balls": [
        7,
        4,
        13,
        8
      ]
    },
    {
      "balls": [
        3,
        6,
        10,
        13
      ]
    },
    {
      "balls": [
        1,
        1,
        12,
        2
      ]
    },
    {
      "balls": [
        5,
        7,
        0,
        9
      ]
    },
    {
      "balls": [
        3,
        1,
        9,
        7
      ]
    },
    {
      "balls": [
        10,
        3,
        11,
        12
      ]
    },
    {
      "balls": [
        9,
        3,
        0,
        11
      ]
    },
    {
      "balls": [
        9,
        8,
        5,
        2
      ]
    },
    {
      "balls": [
        0,
        4,
        2,
        5
      ]
    },
    {
      "balls": [
        0,
        11,
        8,
        2
      ]
    },
    {
      "balls": [
        1,
        10,
        4,
        8
      ]
    },
    {
      "balls": [
        12,
        13,
        6,
        11
      ]
    },
    {
      "balls": []
    },
    {
      "balls": []
    }
  ]
}