{
  "idLv": 447,
  "bottles": [
    {
      "balls": [
        8,
        6,
        0,
        9
      ]
    },
    {
      "balls": [
        8,
        3,
        12,
        7
      ]
    },
    {
      "balls": [
        3,
        8,
        11,
        1
      ]
    },
    {
      "balls": [
        2,
        0,
        3,
        6
      ]
    },
    {
      "balls": [
        5,
        10,
        13,
        10
      ]
    },
    {
      "balls": [
        9,
        12,
        1,
        9
      ]
    },
    {
      "balls": [
        4,
        11,
        1,
        7
      ]
    },
    {
      "balls": [
        2,
        10,
        6,
        4
      ]
    },
    {
      "balls": [
        7,
        10,
        4,
        11
      ]
    },
    {
      "balls": [
        5,
        12,
        9,
        13
      ]
    },
    {
      "balls": [
        13,
        2,
        7,
        8
      ]
    },
    {
      "balls": [
        2,
        0,
        11,
        3
      ]
    },
    {
      "balls": [
        1,
        5,
        6,
        13
      ]
    },
    {
      "balls": [
        0,
        4,
        5,
        12
      ]
    },
    {
      "balls": []
    },
    {
      "balls": []
    }
  ]
}