{
  "idLv": 442,
  "bottles": [
    {
      "balls": [
        0,
        0,
        11,
        9
      ]
    },
    {
      "balls": [
        9,
        9,
        13,
        11
      ]
    },
    {
      "balls": [
        9,
        3,
        8,
        6
      ]
    },
    {
      "balls": [
        7,
        5,
        2,
        12
      ]
    },
    {
      "balls": [
        3,
        2,
        1,
        3
      ]
    },
    {
      "balls": [
        6,
        2,
        11,
        13
      ]
    },
    {
      "balls": [
        1,
        4,
        13,
        8
      ]
    },
    {
      "balls": [
        12,
        4,
        1,
        12
      ]
    },
    {
      "balls": [
        12,
        10,
        2,
        13
      ]
    },
    {
      "balls": [
        5,
        6,
        11,
        0
      ]
    },
    {
      "balls": [
        3,
        4,
        4,
        6
      ]
    },
    {
      "balls": [
        7,
        7,
        5,
        5
      ]
    },
    {
      "balls": [
        0,
        1,
        8,
        10
      ]
    },
    {
      "balls": [
        8,
        10,
        10,
        7
      ]
    },
    {
      "balls": []
    },
    {
      "balls": []
    }
  ]
}