{
  "idLv": 456,
  "bottles": [
    {
      "balls": [
        9,
        6,
        2,
        0
      ]
    },
    {
      "balls": [
        2,
        7,
        4,
        2
      ]
    },
    {
      "balls": [
        2,
        4,
        10,
        5
      ]
    },
    {
      "balls": [
        11,
        10,
        5,
        3
      ]
    },
    {
      "balls": [
        5,
        6,
        0,
        10
      ]
    },
    {
      "balls": [
        1,
        10,
        3,
        9
      ]
    },
    {
      "balls": [
        7,
        11,
        3,
        7
      ]
    },
    {
      "balls": [
        0,
        1,
        9,
        6
      ]
    },
    {
      "balls": [
        9,
        6,
        1,
        1
      ]
    },
    {
      "balls": [
        4,
        11,
        0,
        8
      ]
    },
    {
      "balls": [
        5,
        4,
        8,
        8
      ]
    },
    {
      "balls": [
        8,
        11,
        3,
        7
      ]
    },
    {
      "balls": []
    },
    {
      "balls": []
    }
  ]
}