{
  "idLv": 453,
  "bottles": [
    {
      "balls": [
        4,
        6,
        4,
        11
      ]
    },
    {
      "balls": [
        4,
        9,
        13,
        9
      ]
    },
    {
      "balls": [
        7,
        3,
        3,
        5
      ]
    },
    {
      "balls": [
        7,
        3,
        10,
        2
      ]
    },
    {
      "balls": [
        3,
        1,
        11,
        6
      ]
    },
    {
      "balls": [
        11,
        8,
        0,
        11
      ]
    },
    {
      "balls": [
        10,
        6,
        13,
        0
      ]
    },
    {
      "balls": [
        7,
        2,
        2,
        2
      ]
    },
    {
      "balls": [
        0,
        5,
        1,
        10
      ]
    },
    {
      "balls": [
        8,
        7,
        12,
        1
      ]
    },
    {
      "balls": [
        8,
        12,
        5,
        13
      ]
    },
    {
      "balls": [
        8,
        4,
        0,
        6
      ]
    },
    {
      "balls": [
        9,
        5,
        12,
        1
      ]
    },
    {
      "balls": [
        9,
        10,
        13,
        12
      ]
    },
    {
      "balls": []
    },
    {
      "balls": []
    }
  ]
}