{
  "idLv": 458,
  "bottles": [
    {
      "balls": [
        11,
        2,
        11,
        10
      ]
    },
    {
      "balls": [
        9,
        8,
        1,
        5
      ]
    },
    {
      "balls": [
        12,
        4,
        8,
        4
      ]
    },
    {
      "balls": [
        12,
        2,
        6,
        13
      ]
    },
    {
      "balls": [
        4,
        8,
        12,
        9
      ]
    },
    {
      "balls": [
        13,
        10,
        6,
        7
      ]
    },
    {
      "balls": [
        13,
        0,
        2,
        2
      ]
    },
    {
      "balls": [
        5,
        3,
        3,
        7
      ]
    },
    {
      "balls": [
        0,
        11,
        7,
        4
      ]
    },
    {
      "balls": [
        11,
        9,
        0,
        3
      ]
    },
    {
      "balls": [
        5,
        6,
        7,
        13
      ]
    },
    {
      "balls": [
        1,
        8,
        12,
        9
      ]
    },
    {
      "balls": [
        1,
        10,
        5,
        3
      ]
    },
    {
      "balls": [
        0,
        6,
        10,
        1
      ]
    },
    {
      "balls": []
    },
    {
      "balls": []
    }
  ]
}