{
  "idLv": 459,
  "bottles": [
    {
      "balls": [
        10,
        0,
        9,
        6
      ]
    },
    {
      "balls": [
        8,
        10,
        12,
        5
      ]
    },
    {
      "balls": [
        3,
        5,
        11,
        1
      ]
    },
    {
      "balls": [
        7,
        2,
        7,
        9
      ]
    },
    {
      "balls": [
        1,
        12,
        8,
        2
      ]
    },
    {
      "balls": [
        7,
        7,
        4,
        13
      ]
    },
    {
      "balls": [
        2,
        0,
        0,
        5
      ]
    },
    {
      "balls": [
        4,
        10,
        3,
        1
      ]
    },
    {
      "balls": [
        8,
        13,
        6,
        9
      ]
    },
    {
      "balls": [
        6,
        6,
        12,
        11
      ]
    },
    {
      "balls": [
        2,
        5,
        0,
        4
      ]
    },
    {
      "balls": [
        11,
        13,
        3,
        10
      ]
    },
    {
      "balls": [
        8,
        13,
        11,
        1
      ]
    },
    {
      "balls": [
        9,
        12,
        4,
        3
      ]
    },
    {
      "balls": []
    },
    {
      "balls": []
    }
  ]
}