{
  "idLv": 451,
  "bottles": [
    {
      "balls": [
        11,
        8,
        10,
        11
      ]
    },
    {
      "balls": [
        5,
        6,
        13,
        0
      ]
    },
    {
      "balls": [
        3,
        7,
        12,
        2
      ]
    },
    {
      "balls": [
        13,
        5,
        6,
        4
      ]
    },
    {
      "balls": [
        8,
        8,
        4,
        5
      ]
    },
    {
      "balls": [
        0,
        2,
        1,
        2
      ]
    },
    {
      "balls": [
        4,
        3,
        3,
        3
      ]
    },
    {
      "balls": [
        9,
        12,
        10,
        10
      ]
    },
    {
      "balls": [
        2,
        1,
        6,
        9
      ]
    },
    {
      "balls": [
        7,
        9,
        1,
        11
      ]
    },
    {
      "balls": [
        0,
        13,
        7,
        5
      ]
    },
    {
      "balls": [
        8,
        10,
        11,
        4
      ]
    },
    {
      "balls": [
        0,
        12,
        13,
        12
      ]
    },
    {
      "balls": [
        1,
        9,
        7,
        6
      ]
    },
    {
      "balls": []
    },
    {
      "balls": []
    }
  ]
}