{
  "idLv": 463,
  "bottles": [
    {
      "balls": [
        0,
        2,
        12,
        7
      ]
    },
    {
      "balls": [
        1,
        3,
        5,
        13
      ]
    },
    {
      "balls": [
        2,
        4,
        11,
        10
      ]
    },
    {
      "balls": [
        5,
        8,
        9,
        2
      ]
    },
    {
      "balls": [
        4,
        1,
        12,
        3
      ]
    },
    {
      "balls": [
        1,
        9,
        12,
        0
      ]
    },
    {
      "balls": [
        7,
        12,
        11,
        4
      ]
    },
    {
      "balls": [
        5,
        6,
        10,
        11
      ]
    },
    {
      "balls": [
        8,
        6,
        10,
        2
      ]
    },
    {
      "balls": [
        13,
        11,
        13,
        7
      ]
    },
    {
      "balls": [
        8,
        9,
        3,
        6
      ]
    },
    {
      "balls": [
        8,
        5,
        13,
        0
      ]
    },
    {
      "balls": [
        0,
        3,
        10,
        4
      ]
    },
    {
      "balls": [
        6,
        9,
        1,
        7
      ]
    },
    {
      "balls": []
    },
    {
      "balls": []
    }
  ]
}