{
  "idLv": 467,
  "bottles": [
    {
      "balls": [
        4,
        3,
        4,
        9
      ]
    },
    {
      "balls": [
        10,
        7,
        13,
        7
      ]
    },
    {
      "balls": [
        6,
        3,
        7,
        2
      ]
    },
    {
      "balls": [
        9,
        5,
        6,
        8
      ]
    },
    {
      "balls": [
        11,
        1,
        2,
        1
      ]
    },
    {
      "balls": [
        3,
        5,
        5,
        13
      ]
    },
    {
      "balls": [
        11,
        10,
        10,
        10
      ]
    },
    {
      "balls": [
        5,
        8,
        0,
        13
      ]
    },
    {
      "balls": [
        1,
        8,
        11,
        0
      ]
    },
    {
      "balls": [
        9,
        12,
        7,
        4
      ]
    },
    {
      "balls": [
        6,
        0,
        12,
        4
      ]
    },
    {
      "balls": [
        11,
        6,
        8,
        1
      ]
    },
    {
      "balls": [
        12,
        0,
        9,
        3
      ]
    },
    {
      "balls": [
        13,
        2,
        12,
        2
      ]
    },
    {
      "balls": []
    },
    {
      "balls": []
    }
  ]
}