{
  "idLv": 460,
  "bottles": [
    {
      "balls": [
        1,
        4,
        2,
        7
      ]
    },
    {
      "balls": [
        3,
        5,
        4,
        5
      ]
    },
    {
      "balls": [
        2,
        10,
        9,
        5
      ]
    },
    {
      "balls": [
        10,
        8,
        8,
        7
      ]
    },
    {
      "balls": [
        6,
        6,
        7,
        0
      ]
    },
    {
      "balls": [
        1,
        3,
        11,
        6
      ]
    },
    {
      "balls": [
        0,
        9,
        9,
        3
      ]
    },
    {
      "balls": [
        8,
        3,
        1,
        4
      ]
    },
    {
      "balls": [
        10,
        6,
        0,
        2
      ]
    },
    {
      "balls": [
        11,
        0,
        2,
        8
      ]
    },
    {
      "balls": [
        10,
        11,
        11,
        9
      ]
    },
    {
      "balls": [
        5,
        7,
        4,
        1
      ]
    },
    {
      "balls": []
    },
    {
      "balls": []
    }
  ]
}