{
  "idLv": 477,
  "bottles": [
    {
      "balls": [
        6,
        12,
        11,
        8
      ]
    },
    {
      "balls": [
        2,
        1,
        6,
        5
      ]
    },
    {
      "balls": [
        7,
        7,
        6,
        2
      ]
    },
    {
      "balls": [
        10,
        4,
        5,
        0
      ]
    },
    {
      "balls": [
        10,
        9,
        8,
        13
      ]
    },
    {
      "balls": [
        3,
        13,
        7,
        11
      ]
    },
    {
      "balls": [
        2,
        11,
        9,
        12
      ]
    },
    {
      "balls": [
        0,
        5,
        4,
        5
      ]
    },
    {
      "balls": [
        9,
        11,
        9,
        1
      ]
    },
    {
      "balls": [
        3,
        10,
        3,
        1
      ]
    },
    {
      "balls": [
        12,
        6,
        7,
        4
      ]
    },
    {
      "balls": [
        4,
        8,
        2,
        0
      ]
    },
    {
      "balls": [
        0,
        8,
        13,
        12
      ]
    },
    {
      "balls": [
        1,
        10,
        3,
        13
      ]
    },
    {
      "balls": []
    },
    {
      "balls": []
    }
  ]
}