{
  "idLv": 484,
  "bottles": [
    {
      "balls": [
        8,
        3,
        5,
        5
      ]
    },
    {
      "balls": [
        3,
        4,
        6,
        1
      ]
    },
    {
      "balls": [
        4,
        9,
        4,
        11
      ]
    },
    {
      "balls": [
        7,
        0,
        11,
        6
      ]
    },
    {
      "balls": [
        0,
        2,
        2,
        11
      ]
    },
    {
      "balls": [
        0,
        7,
        7,
        5
      ]
    },
    {
      "balls": [
        9,
        8,
        5,
        1
      ]
    },
    {
      "balls": [
        7,
        10,
        11,
        4
      ]
    },
    {
      "balls": [
        2,
        0,
        9,
        3
      ]
    },
    {
      "balls": [
        2,
        10,
        10,
        3
      ]
    },
    {
      "balls": [
        9,
        6,
        8,
        6
      ]
    },
    {
      "balls": [
        1,
        1,
        8,
        10
      ]
    },
    {
      "balls": []
    },
    {
      "balls": []
    }
  ]
}