{
  "idLv": 485,
  "bottles": [
    {
      "balls": [
        11,
        9,
        11,
        12
      ]
    },
    {
      "balls": [
        0,
        8,
        0,
        1
      ]
    },
    {
      "balls": [
        5,
        6,
        4,
        7
      ]
    },
    {
      "balls": [
        10,
        5,
        7,
        6
      ]
    },
    {
      "balls": [
        7,
        3,
        2,
        10
      ]
    },
    {
      "balls": [
        12,
        12,
        3,
        9
      ]
    },
    {
      "balls": [
        2,
        8,
        7,
        11
      ]
    },
    {
      "balls": [
        1,
        0,
        9,
        13
      ]
    },
    {
      "balls": [
        4,
        13,
        13,
        8
      ]
    },
    {
      "balls": [
        4,
        5,
        0,
        12
      ]
    },
    {
      "balls": [
        8,
        1,
        10,
        2
      ]
    },
    {
      "balls": [
        5,
        1,
        11,
        10
      ]
    },
    {
      "balls": [
        3,
        2,
        9,
        6
      ]
    },
    {
      "balls": [
        4,
        13,
        6,
        3
      ]
    },
    {
      "balls": []
    },
    {
      "balls": []
    }
  ]
}