{
  "idLv": 486,
  "bottles": [
    {
      "balls": [
        13,
        8,
        1,
        4
      ]
    },
    {
      "balls": [
        7,
        8,
        11,
        5
      ]
    },
    {
      "balls": [
        9,
        1,
        13,
        13
      ]
    },
    {
      "balls": [
        5,
        10,
        10,
        9
      ]
    },
    {
      "balls": [
        0,
        12,
        2,
        3
      ]
    },
    {
      "balls": [
        9,
        2,
        6,
        12
      ]
    },
    {
      "balls": [
        5,
        2,
        10,
        8
      ]
    },
    {
      "balls": [
        1,
        11,
        4,
        0
      ]
    },
    {
      "balls": [
        7,
        6,
        11,
        6
      ]
    },
    {
      "balls": [
        7,
        3,
        8,
        12
      ]
    },
    {
      "balls": [
        4,
        7,
        10,
        12
      ]
    },
    {
      "balls": [
        5,
        11,
        6,
        4
      ]
    },
    {
      "balls": [
        2,
        1,
        0,
        9
      ]
    },
    {
      "balls": [
        0,
        3,
        3,
        13
      ]
    },
    {
      "balls": []
    },
    {
      "balls": []
    }
  ]
}