{
  "idLv": 492,
  "bottles": [
    {
      "balls": [
        2,
        10,
        9,
        3
      ]
    },
    {
      "balls": [
        2,
        7,
        4,
        5
      ]
    },
    {
      "balls": [
        4,
        0,
        5,
        8
      ]
    },
    {
      "balls": [
        6,
        2,
        8,
        2
      ]
    },
    {
      "balls": [
        1,
        5,
        8,
        7
      ]
    },
    {
      "balls": [
        11,
        11,
        6,
        9
      ]
    },
    {
      "balls": [
        3,
        6,
        3,
        1
      ]
    },
    {
      "balls": [
        7,
        4,
        10,
        9
      ]
    },
    {
      "balls": [
        0,
        10,
        6,
        5
      ]
    },
    {
      "balls": [
        4,
        8,
        1,
        0
      ]
    },
    {
      "balls": [
        10,
        11,
        7,
        3
      ]
    },
    {
      "balls": [
        11,
        0,
        9,
        1
      ]
    },
    {
      "balls": []
    },
    {
      "balls": []
    }
  ]
}