{
  "idLv": 494,
  "bottles": [
    {
      "balls": [
        13,
        8,
        3,
        7
      ]
    },
    {
      "balls": [
        1,
        10,
        4,
        1
      ]
    },
    {
      "balls": [
        9,
        7,
        5,
        0
      ]
    },
    {
      "balls": [
        12,
        2,
        6,
        9
      ]
    },
    {
      "balls": [
        11,
        9,
        7,
        11
      ]
    },
    {
      "balls": [
        2,
        9,
        5,
        4
      ]
    },
    {
      "balls": [
        13,
        5,
        11,
        3
      ]
    },
    {
      "balls": [
        12,
        11,
        10,
        1
      ]
    },
    {
      "balls": [
        12,
        10,
        0,
        7
      ]
    },
    {
      "balls": [
        8,
        4,
        13,
        5
      ]
    },
    {
      "balls": [
        3,
        4,
        0,
        13
      ]
    },
    {
      "balls": [
        2,
        0,
        2,
        8
      ]
    },
    {
      "balls": [
        6,
        3,
        10,
        12
      ]
    },
    {
      "balls": [
        6,
        6,
        8,
        1
      ]
    },
    {
      "balls": []
    },
    {
      "balls": []
    }
  ]
}