{
  "idLv": 49,
  "bottles": [
    {
      "balls": [
        4,
        2,
        3,
        3
      ]
    },
    {
      "balls": [
        5,
        0,
        1,
        6
      ]
    },
    {
      "balls": [
        1,
        7,
        6,
        8
      ]
    },
    {
      "balls": [
        7,
        8,
        0,
        6
      ]
    },
    {
      "balls": [
        1,
        4,
        3,
        2
      ]
    },
    {
      "balls": [
        3,
        7,
        5,
        5
      ]
    },
    {
      "balls": [
        2,
        0,
        0,
        5
      ]
    },
    {
      "balls": [
        1,
        4,
        2,
        4
      ]
    },
    {
      "balls": [
        6,
        7,
        8,
        8
      ]
    },
    {
      "balls": []
    },
    {
      "balls": []
    }
  ]
}