{
  "idLv": 499,
  "bottles": [
    {
      "balls": [
        3,
        4,
        10,
        11
      ]
    },
    {
      "balls": [
        10,
        9,
        10,
        2
      ]
    },
    {
      "balls": [
        9,
        7,
        1,
        8
      ]
    },
    {
      "balls": [
        4,
        7,
        13,
        4
      ]
    },
    {
      "balls": [
        12,
        13,
        1,
        6
      ]
    },
    {
      "balls": [
        11,
        12,
        6,
        12
      ]
    },
    {
      "balls": [
        11,
        2,
        8,
        3
      ]
    },
    {
      "balls": [
        5,
        0,
        10,
        4
      ]
    },
    {
      "balls": [
        2,
        0,
        13,
        1
      ]
    },
    {
      "balls": [
        7,
        9,
        8,
        5
      ]
    },
    {
      "balls": [
        8,
        13,
        2,
        9
      ]
    },
    {
      "balls": [
        12,
        5,
        5,
        0
      ]
    },
    {
      "balls": [
        11,
        0,
        7,
        6
      ]
    },
    {
      "balls": [
        6,
        3,
        1,
        3
      ]
    },
    {
      "balls": []
    },
    {
      "balls": []
    }
  ]
}