{
  "idLv": 5,
  "bottles": [
    {
      "balls": [
        3,
        2,
        1,
        2
      ]
    },
    {
      "balls": [
        1,
        0,
        0,
        3
      ]
    },
    {
      "balls": [
        3,
        4,
        4,
        2
      ]
    },
    {
      "balls": [
        0,
        4,
        2,
        1
      ]
    },
    {
      "balls": [
        3,
        0,
        4,
        1
      ]
    },
    {
      "balls": []
    },
    {
      "balls": []
    }
  ]
}