{
  "idLv": 52,
  "bottles": [
    {
      "balls": [
        4,
        2,
        1,
        3
      ]
    },
    {
      "balls": [
        4,
        5,
        7,
        4
      ]
    },
    {
      "balls": [
        3,
        6,
        1,
        4
      ]
    },
    {
      "balls": [
        8,
        2,
        2,
        0
      ]
    },
    {
      "balls": [
        8,
        6,
        3,
        0
      ]
    },
    {
      "balls": [
        7,
        7,
        5,
        5
      ]
    },
    {
      "balls": [
        1,
        7,
        3,
        8
      ]
    },
    {
      "balls": [
        2,
        0,
        5,
        6
      ]
    },
    {
      "balls": [
        8,
        6,
        1,
        0
      ]
    },
    {
      "balls": []
    },
    {
      "balls": []
    }
  ]
}