{
  "idLv": 55,
  "bottles": [
    {
      "balls": [
        2,
        7,
        6,
        0
      ]
    },
    {
      "balls": [
        2,
        7,
        5,
        3
      ]
    },
    {
      "balls": [
        2,
        4,
        7,
        4
      ]
    },
    {
      "balls": [
        6,
        1,
        1,
        0
      ]
    },
    {
      "balls": [
        8,
        1,
        7,
        2
      ]
    },
    {
      "balls": [
        8,
        8,
        3,
        0
      ]
    },
    {
      "balls": [
        3,
        4,
        3,
        5
      ]
    },
    {
      "balls": [
        4,
        5,
        0,
        6
      ]
    },
    {
      "balls": [
        8,
        1,
        5,
        6
      ]
    },
    {
      "balls": []
    },
    {
      "balls": []
    }
  ]
}