{
  "idLv": 6,
  "bottles": [
    {
      "balls": [
        4,
        2,
        3,
        3
      ]
    },
    {
      "balls": [
        4,
        4,
        1,
        1
      ]
    },
    {
      "balls": [
        2,
        0,
        3,
        0
      ]
    },
    {
      "balls": [
        4,
        2,
        0,
        3
      ]
    },
    {
      "balls": [
        1,
        2,
        1,
        0
      ]
    },
    {
      "balls": []
    },
    {
      "balls": []
    }
  ]
}