{
  "idLv": 64,
  "bottles": [
    {
      "balls": [
        2,
        7,
        1,
        1
      ]
    },
    {
      "balls": [
        1,
        6,
        5,
        4
      ]
    },
    {
      "balls": [
        2,
        5,
        0,
        6
      ]
    },
    {
      "balls": [
        7,
        0,
        2,
        5
      ]
    },
    {
      "balls": [
        8,
        6,
        5,
        4
      ]
    },
    {
      "balls": [
        0,
        1,
        0,
        2
      ]
    },
    {
      "balls": [
        8,
        7,
        4,
        7
      ]
    },
    {
      "balls": [
        8,
        4,
        3,
        8
      ]
    },
    {
      "balls": [
        3,
        3,
        6,
        3
      ]
    },
    {
      "balls": []
    },
    {
      "balls": []
    }
  ]
}