{
  "idLv": 69,
  "bottles": [
    {
      "balls": [
        6,
        5,
        4,
        2
      ]
    },
    {
      "balls": [
        5,
        3,
        2,
        5
      ]
    },
    {
      "balls": [
        0,
        0,
        6,
        2
      ]
    },
    {
      "balls": [
        3,
        0,
        1,
        1
      ]
    },
    {
      "balls": [
        6,
        4,
        6,
        0
      ]
    },
    {
      "balls": [
        3,
        3,
        4,
        4
      ]
    },
    {
      "balls": [
        5,
        1,
        1,
        2
      ]
    },
    {
      "balls": []
    },
    {
      "balls": []
    }
  ]
}