{
  "idLv": 72,
  "bottles": [
    {
      "balls": [
        3,
        2,
        5,
        5
      ]
    },
    {
      "balls": [
        2,
        7,
        0,
        2
      ]
    },
    {
      "balls": [
        4,
        1,
        8,
        1
      ]
    },
    {
      "balls": [
        7,
        4,
        7,
        8
      ]
    },
    {
      "balls": [
        3,
        0,
        4,
        3
      ]
    },
    {
      "balls": [
        6,
        3,
        8,
        7
      ]
    },
    {
      "balls": [
        4,
        0,
        0,
        5
      ]
    },
    {
      "balls": [
        6,
        1,
        6,
        8
      ]
    },
    {
      "balls": [
        6,
        5,
        2,
        1
      ]
    },
    {
      "balls": []
    },
    {
      "balls": []
    }
  ]
}