{
  "idLv": 73,
  "bottles": [
    {
      "balls": [
        6,
        4,
        4,
        5
      ]
    },
    {
      "balls": [
        0,
        6,
        3,
        1
      ]
    },
    {
      "balls": [
        2,
        2,
        5,
        1
      ]
    },
    {
      "balls": [
        7,
        1,
        4,
        6
      ]
    },
    {
      "balls": [
        2,
        7,
        3,
        3
      ]
    },
    {
      "balls": [
        0,
        5,
        7,
        4
      ]
    },
    {
      "balls": [
        7,
        8,
        0,
        1
      ]
    },
    {
      "balls": [
        8,
        8,
        0,
        8
      ]
    },
    {
      "balls": [
        2,
        3,
        6,
        5
      ]
    },
    {
      "balls": []
    },
    {
      "balls": []
    }
  ]
}