{
  "idLv": 76,
  "bottles": [
    {
      "balls": [
        7,
        5,
        4,
        0
      ]
    },
    {
      "balls": [
        0,
        0,
        1,
        7
      ]
    },
    {
      "balls": [
        5,
        7,
        4,
        2
      ]
    },
    {
      "balls": [
        6,
        8,
        2,
        5
      ]
    },
    {
      "balls": [
        8,
        8,
        6,
        6
      ]
    },
    {
      "balls": [
        1,
        0,
        6,
        5
      ]
    },
    {
      "balls": [
        3,
        1,
        2,
        1
      ]
    },
    {
      "balls": [
        3,
        7,
        8,
        4
      ]
    },
    {
      "balls": [
        2,
        3,
        4,
        3
      ]
    },
    {
      "balls": []
    },
    {
      "balls": []
    }
  ]
}