{
  "idLv": 78,
  "bottles": [
    {
      "balls": [
        3,
        5,
        4,
        0
      ]
    },
    {
      "balls": [
        0,
        2,
        6,
        1
      ]
    },
    {
      "balls": [
        4,
        6,
        5,
        3
      ]
    },
    {
      "balls": [
        2,
        1,
        3,
        8
      ]
    },
    {
      "balls": [
        7,
        3,
        6,
        5
      ]
    },
    {
      "balls": [
        6,
        2,
        5,
        4
      ]
    },
    {
      "balls": [
        1,
        8,
        7,
        8
      ]
    },
    {
      "balls": [
        0,
        7,
        7,
        1
      ]
    },
    {
      "balls": [
        0,
        8,
        2,
        4
      ]
    },
    {
      "balls": []
    },
    {
      "balls": []
    }
  ]
}