{
  "idLv": 83,
  "bottles": [
    {
      "balls": [
        1,
        5,
        1,
        5
      ]
    },
    {
      "balls": [
        3,
        4,
        0,
        6
      ]
    },
    {
      "balls": [
        3,
        2,
        1,
        0
      ]
    },
    {
      "balls": [
        0,
        4,
        6,
        3
      ]
    },
    {
      "balls": [
        2,
        1,
        2,
        6
      ]
    },
    {
      "balls": [
        6,
        0,
        5,
        5
      ]
    },
    {
      "balls": [
        3,
        4,
        2,
        4
      ]
    },
    {
      "balls": []
    },
    {
      "balls": []
    }
  ]
}