{
  "idLv": 90,
  "bottles": [
    {
      "balls": [
        2,
        4,
        7,
        6
      ]
    },
    {
      "balls": [
        3,
        0,
        8,
        2
      ]
    },
    {
      "balls": [
        4,
        5,
        4,
        6
      ]
    },
    {
      "balls": [
        0,
        3,
        0,
        6
      ]
    },
    {
      "balls": [
        1,
        7,
        3,
        7
      ]
    },
    {
      "balls": [
        1,
        2,
        3,
        7
      ]
    },
    {
      "balls": [
        0,
        1,
        8,
        5
      ]
    },
    {
      "balls": [
        8,
        6,
        1,
        4
      ]
    },
    {
      "balls": [
        5,
        5,
        8,
        2
      ]
    },
    {
      "balls": []
    },
    {
      "balls": []
    }
  ]
}