{
  "idLv": 92,
  "bottles": [
    {
      "balls": [
        3,
        0,
        1,
        2
      ]
    },
    {
      "balls": [
        6,
        3,
        6,
        3
      ]
    },
    {
      "balls": [
        1,
        4,
        0,
        1
      ]
    },
    {
      "balls": [
        6,
        3,
        5,
        5
      ]
    },
    {
      "balls": [
        5,
        2,
        4,
        4
      ]
    },
    {
      "balls": [
        2,
        5,
        1,
        2
      ]
    },
    {
      "balls": [
        4,
        6,
        0,
        0
      ]
    },
    {
      "balls": []
    },
    {
      "balls": []
    }
  ]
}