{
  "idLv": 93,
  "bottles": [
    {
      "balls": [
        2,
        7,
        6,
        5
      ]
    },
    {
      "balls": [
        1,
        3,
        5,
        6
      ]
    },
    {
      "balls": [
        6,
        6,
        2,
        2
      ]
    },
    {
      "balls": [
        1,
        0,
        5,
        5
      ]
    },
    {
      "balls": [
        1,
        3,
        4,
        7
      ]
    },
    {
      "balls": [
        0,
        3,
        8,
        3
      ]
    },
    {
      "balls": [
        8,
        0,
        8,
        4
      ]
    },
    {
      "balls": [
        4,
        4,
        7,
        0
      ]
    },
    {
      "balls": [
        1,
        2,
        7,
        8
      ]
    },
    {
      "balls": []
    },
    {
      "balls": []
    }
  ]
}