{
  "idLv": 94,
  "bottles": [
    {
      "balls": [
        8,
        1,
        4,
        5
      ]
    },
    {
      "balls": [
        8,
        6,
        5,
        0
      ]
    },
    {
      "balls": [
        4,
        4,
        6,
        2
      ]
    },
    {
      "balls": [
        7,
        2,
        6,
        3
      ]
    },
    {
      "balls": [
        8,
        4,
        8,
        1
      ]
    },
    {
      "balls": [
        7,
        5,
        7,
        2
      ]
    },
    {
      "balls": [
        3,
        0,
        7,
        3
      ]
    },
    {
      "balls": [
        0,
        2,
        1,
        6
      ]
    },
    {
      "balls": [
        5,
        3,
        0,
        1
      ]
    },
    {
      "balls": []
    },
    {
      "balls": []
    }
  ]
}