{
  "idLv": 96,
  "bottles": [
    {
      "balls": [
        0,
        1,
        4,
        1
      ]
    },
    {
      "balls": [
        3,
        1,
        4,
        8
      ]
    },
    {
      "balls": [
        5,
        5,
        4,
        3
      ]
    },
    {
      "balls": [
        8,
        0,
        7,
        6
      ]
    },
    {
      "balls": [
        1,
        5,
        8,
        8
      ]
    },
    {
      "balls": [
        5,
        6,
        2,
        7
      ]
    },
    {
      "balls": [
        2,
        2,
        6,
        6
      ]
    },
    {
      "balls": [
        0,
        3,
        2,
        7
      ]
    },
    {
      "balls": [
        7,
        4,
        3,
        0
      ]
    },
    {
      "balls": []
    },
    {
      "balls": []
    }
  ]
}