{
  "idLv": 98,
  "bottles": [
    {
      "balls": [
        1,
        3,
        0,
        0
      ]
    },
    {
      "balls": [
        3,
        6,
        3,
        2
      ]
    },
    {
      "balls": [
        1,
        5,
        4,
        6
      ]
    },
    {
      "balls": [
        1,
        0,
        2,
        0
      ]
    },
    {
      "balls": [
        4,
        4,
        2,
        2
      ]
    },
    {
      "balls": [
        6,
        4,
        5,
        5
      ]
    },
    {
      "balls": [
        3,
        6,
        5,
        1
      ]
    },
    {
      "balls": []
    },
    {
      "balls": []
    }
  ]
}